G04 (created by PCBNEW (2013-mar-13)-testing) date Thu 05 Sep 2013 22:07:31 BST*
%MOIN*%
G04 Gerber Fmt 3.4, Leading zero omitted, Abs format*
%FSLAX34Y34*%
G01*
G70*
G90*
G04 APERTURE LIST*
%ADD10C,0.005906*%
%ADD11C,0.007874*%
G04 APERTURE END LIST*
G54D10*
G54D11*
X10452Y-17007D02*
X10452Y-16417D01*
X33897Y-33405D02*
X33641Y-33405D01*
M02*
