EESchema Schematic File Version 2
LIBS:power
LIBS:device
LIBS:transistors
LIBS:conn
LIBS:linear
LIBS:regul
LIBS:74xx
LIBS:cmos4000
LIBS:adc-dac
LIBS:memory
LIBS:xilinx
LIBS:special
LIBS:microcontrollers
LIBS:dsp
LIBS:microchip
LIBS:analog_switches
LIBS:motorola
LIBS:texas
LIBS:intel
LIBS:audio
LIBS:interface
LIBS:digital-audio
LIBS:philips
LIBS:display
LIBS:cypress
LIBS:siliconi
LIBS:opto
LIBS:atmel
LIBS:contrib
LIBS:valves
LIBS:connectors
LIBS:yc124
LIBS:yc248
LIBS:mounting_hole
EELAYER 27 0
EELAYER END
$Descr A4 11693 8268
encoding utf-8
Sheet 1 1
Title "16xNAND Gate Teaching Board"
Date "25 jul 2014"
Rev "B"
Comp "University of Bristol, Department of Computer Science"
Comment1 "Designer: Simon Hollis (simon@cs.bris.ac.uk)"
Comment2 ""
Comment3 ""
Comment4 ""
$EndDescr
$Comp
L 74HC00 U3
U 1 1 5210EBAD
P 2300 2000
F 0 "U3" H 2300 2050 60  0000 C CNN
F 1 "74HC00" H 2300 1900 60  0000 C CNN
F 2 "~" H 2300 2000 60  0000 C CNN
F 3 "~" H 2300 2000 60  0000 C CNN
	1    2300 2000
	1    0    0    -1  
$EndComp
$Comp
L 74HC00 U3
U 3 1 5210EBD5
P 2300 3000
F 0 "U3" H 2300 3050 60  0000 C CNN
F 1 "74HC00" H 2300 2900 60  0000 C CNN
F 2 "~" H 2300 3000 60  0000 C CNN
F 3 "~" H 2300 3000 60  0000 C CNN
	3    2300 3000
	1    0    0    -1  
$EndComp
$Comp
L 74HC00 U3
U 4 1 5210EBE9
P 2250 3500
F 0 "U3" H 2250 3550 60  0000 C CNN
F 1 "74HC00" H 2250 3400 60  0000 C CNN
F 2 "~" H 2250 3500 60  0000 C CNN
F 3 "~" H 2250 3500 60  0000 C CNN
	4    2250 3500
	1    0    0    -1  
$EndComp
$Comp
L 74HC00 U3
U 2 1 5210EBFD
P 2300 2500
F 0 "U3" H 2300 2550 60  0000 C CNN
F 1 "74HC00" H 2300 2400 60  0000 C CNN
F 2 "~" H 2300 2500 60  0000 C CNN
F 3 "~" H 2300 2500 60  0000 C CNN
	2    2300 2500
	1    0    0    -1  
$EndComp
$Comp
L CONN_8X2 P1
U 1 1 5210ECBB
P 600 2800
F 0 "P1" V 550 2800 60  0000 C CNN
F 1 "NAND_IN_A" V 650 2800 60  0000 C CNN
F 2 "~" H 600 2800 60  0000 C CNN
F 3 "~" H 600 2800 60  0000 C CNN
	1    600  2800
	-1   0    0    -1  
$EndComp
$Comp
L LED D1
U 1 1 5210ED94
P 3400 2000
F 0 "D1" H 3400 2100 50  0000 C CNN
F 1 "LED" H 3400 1900 50  0000 C CNN
F 2 "~" H 3400 2000 60  0000 C CNN
F 3 "~" H 3400 2000 60  0000 C CNN
	1    3400 2000
	1    0    0    -1  
$EndComp
$Comp
L LED D2
U 1 1 5210EDAD
P 3400 2500
F 0 "D2" H 3400 2600 50  0000 C CNN
F 1 "LED" H 3400 2400 50  0000 C CNN
F 2 "~" H 3400 2500 60  0000 C CNN
F 3 "~" H 3400 2500 60  0000 C CNN
	1    3400 2500
	1    0    0    -1  
$EndComp
$Comp
L LED D3
U 1 1 5210EDBC
P 3400 3000
F 0 "D3" H 3400 3100 50  0000 C CNN
F 1 "LED" H 3400 2900 50  0000 C CNN
F 2 "~" H 3400 3000 60  0000 C CNN
F 3 "~" H 3400 3000 60  0000 C CNN
	1    3400 3000
	1    0    0    -1  
$EndComp
$Comp
L LED D4
U 1 1 5210EDCB
P 3400 3500
F 0 "D4" H 3400 3600 50  0000 C CNN
F 1 "LED" H 3400 3400 50  0000 C CNN
F 2 "~" H 3400 3500 60  0000 C CNN
F 3 "~" H 3400 3500 60  0000 C CNN
	1    3400 3500
	1    0    0    -1  
$EndComp
$Comp
L GND #PWR01
U 1 1 5210F69A
P 600 1700
F 0 "#PWR01" H 600 1700 30  0001 C CNN
F 1 "GND" H 600 1630 30  0001 C CNN
F 2 "" H 600 1700 60  0000 C CNN
F 3 "" H 600 1700 60  0000 C CNN
	1    600  1700
	1    0    0    -1  
$EndComp
$Comp
L 74HC00 U4
U 1 1 5211021E
P 2300 5200
F 0 "U4" H 2300 5250 60  0000 C CNN
F 1 "74HC00" H 2300 5100 60  0000 C CNN
F 2 "~" H 2300 5200 60  0000 C CNN
F 3 "~" H 2300 5200 60  0000 C CNN
	1    2300 5200
	1    0    0    -1  
$EndComp
$Comp
L 74HC00 U4
U 2 1 52110224
P 2300 5700
F 0 "U4" H 2300 5750 60  0000 C CNN
F 1 "74HC00" H 2300 5600 60  0000 C CNN
F 2 "~" H 2300 5700 60  0000 C CNN
F 3 "~" H 2300 5700 60  0000 C CNN
	2    2300 5700
	1    0    0    -1  
$EndComp
$Comp
L 74HC00 U4
U 3 1 5211022A
P 2300 6200
F 0 "U4" H 2300 6250 60  0000 C CNN
F 1 "74HC00" H 2300 6100 60  0000 C CNN
F 2 "~" H 2300 6200 60  0000 C CNN
F 3 "~" H 2300 6200 60  0000 C CNN
	3    2300 6200
	1    0    0    -1  
$EndComp
$Comp
L 74HC00 U4
U 4 1 52110230
P 2300 6700
F 0 "U4" H 2300 6750 60  0000 C CNN
F 1 "74HC00" H 2300 6600 60  0000 C CNN
F 2 "~" H 2300 6700 60  0000 C CNN
F 3 "~" H 2300 6700 60  0000 C CNN
	4    2300 6700
	1    0    0    -1  
$EndComp
$Comp
L CONN_8X2 P2
U 1 1 52110236
P 600 6000
F 0 "P2" V 550 6000 60  0000 C CNN
F 1 "NAND_IN_B" V 650 6000 60  0000 C CNN
F 2 "~" H 600 6000 60  0000 C CNN
F 3 "~" H 600 6000 60  0000 C CNN
	1    600  6000
	-1   0    0    -1  
$EndComp
$Comp
L LED D5
U 1 1 52110242
P 3400 5200
F 0 "D5" H 3400 5300 50  0000 C CNN
F 1 "LED" H 3400 5100 50  0000 C CNN
F 2 "~" H 3400 5200 60  0000 C CNN
F 3 "~" H 3400 5200 60  0000 C CNN
	1    3400 5200
	1    0    0    -1  
$EndComp
$Comp
L LED D6
U 1 1 52110248
P 3400 5700
F 0 "D6" H 3400 5800 50  0000 C CNN
F 1 "LED" H 3400 5600 50  0000 C CNN
F 2 "~" H 3400 5700 60  0000 C CNN
F 3 "~" H 3400 5700 60  0000 C CNN
	1    3400 5700
	1    0    0    -1  
$EndComp
$Comp
L LED D7
U 1 1 5211024E
P 3400 6200
F 0 "D7" H 3400 6300 50  0000 C CNN
F 1 "LED" H 3400 6100 50  0000 C CNN
F 2 "~" H 3400 6200 60  0000 C CNN
F 3 "~" H 3400 6200 60  0000 C CNN
	1    3400 6200
	1    0    0    -1  
$EndComp
$Comp
L LED D8
U 1 1 52110254
P 3400 6700
F 0 "D8" H 3400 6800 50  0000 C CNN
F 1 "LED" H 3400 6600 50  0000 C CNN
F 2 "~" H 3400 6700 60  0000 C CNN
F 3 "~" H 3400 6700 60  0000 C CNN
	1    3400 6700
	1    0    0    -1  
$EndComp
$Comp
L YC248 U2
U 1 1 5211025A
P 950 4200
F 0 "U2" H 950 4450 60  0000 C CNN
F 1 "10k" H 950 3550 60  0000 C CNN
F 2 "~" H 950 4200 60  0000 C CNN
F 3 "~" H 950 4200 60  0000 C CNN
	1    950  4200
	-1   0    0    -1  
$EndComp
$Comp
L GND #PWR02
U 1 1 52110260
P 600 4900
F 0 "#PWR02" H 600 4900 30  0001 C CNN
F 1 "GND" H 600 4830 30  0001 C CNN
F 2 "" H 600 4900 60  0000 C CNN
F 3 "" H 600 4900 60  0000 C CNN
	1    600  4900
	1    0    0    -1  
$EndComp
$Comp
L CONN_8X2 P5
U 1 1 5211097B
P 5350 2800
F 0 "P5" V 5300 2800 50  0000 C CNN
F 1 "NAND_OUT_A" V 5400 2800 50  0000 C CNN
F 2 "~" H 5350 2800 60  0000 C CNN
F 3 "~" H 5350 2800 60  0000 C CNN
	1    5350 2800
	1    0    0    -1  
$EndComp
$Comp
L GND #PWR03
U 1 1 52110F20
P 4950 4800
F 0 "#PWR03" H 4950 4800 30  0001 C CNN
F 1 "GND" H 4950 4730 30  0001 C CNN
F 2 "" H 4950 4800 60  0000 C CNN
F 3 "" H 4950 4800 60  0000 C CNN
	1    4950 4800
	1    0    0    -1  
$EndComp
$Comp
L 74HC00 U8
U 1 1 52110683
P 8150 1900
F 0 "U8" H 8150 1950 60  0000 C CNN
F 1 "74HC00" H 8150 1800 60  0000 C CNN
F 2 "~" H 8150 1900 60  0000 C CNN
F 3 "~" H 8150 1900 60  0000 C CNN
	1    8150 1900
	1    0    0    -1  
$EndComp
$Comp
L 74HC00 U8
U 2 1 52110689
P 8150 2400
F 0 "U8" H 8150 2450 60  0000 C CNN
F 1 "74HC00" H 8150 2300 60  0000 C CNN
F 2 "~" H 8150 2400 60  0000 C CNN
F 3 "~" H 8150 2400 60  0000 C CNN
	2    8150 2400
	1    0    0    -1  
$EndComp
$Comp
L 74HC00 U8
U 3 1 5211068F
P 8150 2900
F 0 "U8" H 8150 2950 60  0000 C CNN
F 1 "74HC00" H 8150 2800 60  0000 C CNN
F 2 "~" H 8150 2900 60  0000 C CNN
F 3 "~" H 8150 2900 60  0000 C CNN
	3    8150 2900
	1    0    0    -1  
$EndComp
$Comp
L 74HC00 U8
U 4 1 52110695
P 8100 3400
F 0 "U8" H 8100 3450 60  0000 C CNN
F 1 "74HC00" H 8100 3300 60  0000 C CNN
F 2 "~" H 8100 3400 60  0000 C CNN
F 3 "~" H 8100 3400 60  0000 C CNN
	4    8100 3400
	1    0    0    -1  
$EndComp
$Comp
L CONN_8X2 P9
U 1 1 5211069B
P 6450 2700
F 0 "P9" V 6400 2700 60  0000 C CNN
F 1 "NAND_IN_C" V 6500 2700 60  0000 C CNN
F 2 "~" H 6450 2700 60  0000 C CNN
F 3 "~" H 6450 2700 60  0000 C CNN
	1    6450 2700
	-1   0    0    -1  
$EndComp
$Comp
L LED D9
U 1 1 521106A1
P 9250 1900
F 0 "D9" H 9250 2000 50  0000 C CNN
F 1 "LED" H 9250 1800 50  0000 C CNN
F 2 "~" H 9250 1900 60  0000 C CNN
F 3 "~" H 9250 1900 60  0000 C CNN
	1    9250 1900
	1    0    0    -1  
$EndComp
$Comp
L LED D10
U 1 1 521106A7
P 9250 2400
F 0 "D10" H 9250 2500 50  0000 C CNN
F 1 "LED" H 9250 2300 50  0000 C CNN
F 2 "~" H 9250 2400 60  0000 C CNN
F 3 "~" H 9250 2400 60  0000 C CNN
	1    9250 2400
	1    0    0    -1  
$EndComp
$Comp
L LED D11
U 1 1 521106AD
P 9250 2900
F 0 "D11" H 9250 3000 50  0000 C CNN
F 1 "LED" H 9250 2800 50  0000 C CNN
F 2 "~" H 9250 2900 60  0000 C CNN
F 3 "~" H 9250 2900 60  0000 C CNN
	1    9250 2900
	1    0    0    -1  
$EndComp
$Comp
L LED D12
U 1 1 521106B3
P 9250 3400
F 0 "D12" H 9250 3500 50  0000 C CNN
F 1 "LED" H 9250 3300 50  0000 C CNN
F 2 "~" H 9250 3400 60  0000 C CNN
F 3 "~" H 9250 3400 60  0000 C CNN
	1    9250 3400
	1    0    0    -1  
$EndComp
$Comp
L YC248 U6
U 1 1 521106B9
P 6300 900
F 0 "U6" H 6300 1150 60  0000 C CNN
F 1 "10k" H 6300 250 60  0000 C CNN
F 2 "~" H 6300 900 60  0000 C CNN
F 3 "~" H 6300 900 60  0000 C CNN
	1    6300 900 
	-1   0    0    -1  
$EndComp
$Comp
L GND #PWR04
U 1 1 521106BF
P 5950 1600
F 0 "#PWR04" H 5950 1600 30  0001 C CNN
F 1 "GND" H 5950 1530 30  0001 C CNN
F 2 "" H 5950 1600 60  0000 C CNN
F 3 "" H 5950 1600 60  0000 C CNN
	1    5950 1600
	1    0    0    -1  
$EndComp
$Comp
L 74HC00 U9
U 1 1 521106C5
P 8150 5100
F 0 "U9" H 8150 5150 60  0000 C CNN
F 1 "74HC00" H 8150 5000 60  0000 C CNN
F 2 "~" H 8150 5100 60  0000 C CNN
F 3 "~" H 8150 5100 60  0000 C CNN
	1    8150 5100
	1    0    0    -1  
$EndComp
$Comp
L 74HC00 U9
U 2 1 521106CB
P 8150 5600
F 0 "U9" H 8150 5650 60  0000 C CNN
F 1 "74HC00" H 8150 5500 60  0000 C CNN
F 2 "~" H 8150 5600 60  0000 C CNN
F 3 "~" H 8150 5600 60  0000 C CNN
	2    8150 5600
	1    0    0    -1  
$EndComp
$Comp
L 74HC00 U9
U 3 1 521106D1
P 8150 6100
F 0 "U9" H 8150 6150 60  0000 C CNN
F 1 "74HC00" H 8150 6000 60  0000 C CNN
F 2 "~" H 8150 6100 60  0000 C CNN
F 3 "~" H 8150 6100 60  0000 C CNN
	3    8150 6100
	1    0    0    -1  
$EndComp
$Comp
L 74HC00 U9
U 4 1 521106D7
P 8150 6600
F 0 "U9" H 8150 6650 60  0000 C CNN
F 1 "74HC00" H 8150 6500 60  0000 C CNN
F 2 "~" H 8150 6600 60  0000 C CNN
F 3 "~" H 8150 6600 60  0000 C CNN
	4    8150 6600
	1    0    0    -1  
$EndComp
$Comp
L CONN_8X2 P10
U 1 1 521106DD
P 6450 5900
F 0 "P10" V 6400 5900 60  0000 C CNN
F 1 "NAND_IN_D" V 6500 5900 60  0000 C CNN
F 2 "~" H 6450 5900 60  0000 C CNN
F 3 "~" H 6450 5900 60  0000 C CNN
	1    6450 5900
	-1   0    0    -1  
$EndComp
$Comp
L LED D13
U 1 1 521106E9
P 9250 5100
F 0 "D13" H 9250 5200 50  0000 C CNN
F 1 "LED" H 9250 5000 50  0000 C CNN
F 2 "~" H 9250 5100 60  0000 C CNN
F 3 "~" H 9250 5100 60  0000 C CNN
	1    9250 5100
	1    0    0    -1  
$EndComp
$Comp
L LED D14
U 1 1 521106EF
P 9250 5600
F 0 "D14" H 9250 5700 50  0000 C CNN
F 1 "LED" H 9250 5500 50  0000 C CNN
F 2 "~" H 9250 5600 60  0000 C CNN
F 3 "~" H 9250 5600 60  0000 C CNN
	1    9250 5600
	1    0    0    -1  
$EndComp
$Comp
L LED D15
U 1 1 521106F5
P 9250 6100
F 0 "D15" H 9250 6200 50  0000 C CNN
F 1 "LED" H 9250 6000 50  0000 C CNN
F 2 "~" H 9250 6100 60  0000 C CNN
F 3 "~" H 9250 6100 60  0000 C CNN
	1    9250 6100
	1    0    0    -1  
$EndComp
$Comp
L LED D16
U 1 1 521106FB
P 9250 6600
F 0 "D16" H 9250 6700 50  0000 C CNN
F 1 "LED" H 9250 6500 50  0000 C CNN
F 2 "~" H 9250 6600 60  0000 C CNN
F 3 "~" H 9250 6600 60  0000 C CNN
	1    9250 6600
	1    0    0    -1  
$EndComp
$Comp
L YC248 U7
U 1 1 52110701
P 6300 4100
F 0 "U7" H 6300 4350 60  0000 C CNN
F 1 "10k" H 6300 3450 60  0000 C CNN
F 2 "~" H 6300 4100 60  0000 C CNN
F 3 "~" H 6300 4100 60  0000 C CNN
	1    6300 4100
	-1   0    0    -1  
$EndComp
$Comp
L GND #PWR05
U 1 1 52110707
P 5950 4800
F 0 "#PWR05" H 5950 4800 30  0001 C CNN
F 1 "GND" H 5950 4730 30  0001 C CNN
F 2 "" H 5950 4800 60  0000 C CNN
F 3 "" H 5950 4800 60  0000 C CNN
	1    5950 4800
	1    0    0    -1  
$EndComp
$Comp
L GND #PWR06
U 1 1 52110719
P 10800 4700
F 0 "#PWR06" H 10800 4700 30  0001 C CNN
F 1 "GND" H 10800 4630 30  0001 C CNN
F 2 "" H 10800 4700 60  0000 C CNN
F 3 "" H 10800 4700 60  0000 C CNN
	1    10800 4700
	1    0    0    -1  
$EndComp
$Comp
L MICRO-B-USB P7
U 1 1 52110A14
P 4550 7200
F 0 "P7" H 4500 7650 60  0000 C CNN
F 1 "MICRO-B-USB" V 4400 7200 60  0000 C CNN
F 2 "" H 4550 7200 60  0000 C CNN
F 3 "" H 4550 7200 60  0000 C CNN
	1    4550 7200
	1    0    0    -1  
$EndComp
NoConn ~ 4950 7300
NoConn ~ 4950 7200
NoConn ~ 4950 7100
$Comp
L VCC #PWR07
U 1 1 52110BB4
P 4950 6850
F 0 "#PWR07" H 4950 6950 30  0001 C CNN
F 1 "VCC" H 4950 6950 30  0000 C CNN
F 2 "" H 4950 6850 60  0000 C CNN
F 3 "" H 4950 6850 60  0000 C CNN
	1    4950 6850
	1    0    0    -1  
$EndComp
$Comp
L GND #PWR08
U 1 1 52110BC3
P 4950 7500
F 0 "#PWR08" H 4950 7500 30  0001 C CNN
F 1 "GND" H 4950 7430 30  0001 C CNN
F 2 "" H 4950 7500 60  0000 C CNN
F 3 "" H 4950 7500 60  0000 C CNN
	1    4950 7500
	1    0    0    -1  
$EndComp
$Comp
L C C2
U 1 1 52111582
P 5400 7200
F 0 "C2" H 5400 7300 40  0000 L CNN
F 1 "10nF" H 5406 7115 40  0000 L CNN
F 2 "~" H 5438 7050 30  0000 C CNN
F 3 "~" H 5400 7200 60  0000 C CNN
	1    5400 7200
	1    0    0    -1  
$EndComp
$Comp
L C C1
U 1 1 52111591
P 5150 7200
F 0 "C1" H 5150 7300 40  0000 L CNN
F 1 "1uF" H 5156 7115 40  0000 L CNN
F 2 "~" H 5188 7050 30  0000 C CNN
F 3 "~" H 5150 7200 60  0000 C CNN
	1    5150 7200
	1    0    0    -1  
$EndComp
$Comp
L CONN_2 P8
U 1 1 52110FB5
P 5950 7200
F 0 "P8" V 5900 7200 40  0000 C CNN
F 1 "Power" V 6000 7200 40  0000 C CNN
F 2 "~" H 5950 7200 60  0000 C CNN
F 3 "~" H 5950 7200 60  0000 C CNN
	1    5950 7200
	1    0    0    -1  
$EndComp
Text Notes 5450 6750 0    60   ~ 0
Power Supply
$Comp
L CONN_8 P3
U 1 1 52111FB7
P 2350 1200
F 0 "P3" V 2300 1200 60  0000 C CNN
F 1 "Logic 1" V 2400 1200 60  0000 C CNN
F 2 "~" H 2350 1200 60  0000 C CNN
F 3 "~" H 2350 1200 60  0000 C CNN
	1    2350 1200
	1    0    0    -1  
$EndComp
$Comp
L VCC #PWR09
U 1 1 52111FD5
P 1900 750
F 0 "#PWR09" H 1900 850 30  0001 C CNN
F 1 "VCC" H 1900 850 30  0000 C CNN
F 2 "" H 1900 750 60  0000 C CNN
F 3 "" H 1900 750 60  0000 C CNN
	1    1900 750 
	1    0    0    -1  
$EndComp
$Comp
L CONN_8 P4
U 1 1 52112F09
P 3100 1200
F 0 "P4" V 3050 1200 60  0000 C CNN
F 1 "Logic 1" V 3150 1200 60  0000 C CNN
F 2 "~" H 3100 1200 60  0000 C CNN
F 3 "~" H 3100 1200 60  0000 C CNN
	1    3100 1200
	1    0    0    -1  
$EndComp
$Comp
L VCC #PWR010
U 1 1 52112F0F
P 2650 750
F 0 "#PWR010" H 2650 850 30  0001 C CNN
F 1 "VCC" H 2650 850 30  0000 C CNN
F 2 "" H 2650 750 60  0000 C CNN
F 3 "" H 2650 750 60  0000 C CNN
	1    2650 750 
	1    0    0    -1  
$EndComp
$Comp
L CONN_8 P11
U 1 1 52112F25
P 9450 1150
F 0 "P11" V 9400 1150 60  0000 C CNN
F 1 "Logic 1" V 9500 1150 60  0000 C CNN
F 2 "~" H 9450 1150 60  0000 C CNN
F 3 "~" H 9450 1150 60  0000 C CNN
	1    9450 1150
	1    0    0    -1  
$EndComp
$Comp
L VCC #PWR011
U 1 1 52112F2B
P 9000 700
F 0 "#PWR011" H 9000 800 30  0001 C CNN
F 1 "VCC" H 9000 800 30  0000 C CNN
F 2 "" H 9000 700 60  0000 C CNN
F 3 "" H 9000 700 60  0000 C CNN
	1    9000 700 
	1    0    0    -1  
$EndComp
$Comp
L CONN_8 P12
U 1 1 52112F41
P 10200 1150
F 0 "P12" V 10150 1150 60  0000 C CNN
F 1 "Logic 1" V 10250 1150 60  0000 C CNN
F 2 "~" H 10200 1150 60  0000 C CNN
F 3 "~" H 10200 1150 60  0000 C CNN
	1    10200 1150
	1    0    0    -1  
$EndComp
$Comp
L VCC #PWR012
U 1 1 52112F47
P 9750 700
F 0 "#PWR012" H 9750 800 30  0001 C CNN
F 1 "VCC" H 9750 800 30  0000 C CNN
F 2 "" H 9750 700 60  0000 C CNN
F 3 "" H 9750 700 60  0000 C CNN
	1    9750 700 
	1    0    0    -1  
$EndComp
Text Notes 2100 700  0    60   ~ 0
Logic 1
Text Notes 9200 650  0    60   ~ 0
Logic 1
$Comp
L YC124 U5
U 1 1 52112438
P 4550 4100
F 0 "U5" H 4560 4320 60  0000 C CNN
F 1 "560R" H 4550 4400 60  0000 C CNN
F 2 "" H 4550 4100 60  0000 C CNN
F 3 "" H 4550 4100 60  0000 C CNN
	1    4550 4100
	1    0    0    -1  
$EndComp
$Comp
L YC124 U10
U 1 1 52112447
P 4550 4500
F 0 "U10" H 4550 4200 60  0000 C CNN
F 1 "560R" H 4530 4260 60  0000 C CNN
F 2 "" H 4550 4500 60  0000 C CNN
F 3 "" H 4550 4500 60  0000 C CNN
	1    4550 4500
	1    0    0    -1  
$EndComp
$Comp
L YC124 U11
U 1 1 5211248A
P 10400 4000
F 0 "U11" H 10410 4220 60  0000 C CNN
F 1 "560R" H 10400 4300 60  0000 C CNN
F 2 "" H 10400 4000 60  0000 C CNN
F 3 "" H 10400 4000 60  0000 C CNN
	1    10400 4000
	1    0    0    -1  
$EndComp
$Comp
L YC124 U12
U 1 1 521124A3
P 10400 4400
F 0 "U12" H 10400 4050 60  0000 C CNN
F 1 "560R" H 10380 4160 60  0000 C CNN
F 2 "" H 10400 4400 60  0000 C CNN
F 3 "" H 10400 4400 60  0000 C CNN
	1    10400 4400
	1    0    0    -1  
$EndComp
$Comp
L YC248 U1
U 1 1 521127EA
P 950 1000
F 0 "U1" H 950 1250 60  0000 C CNN
F 1 "10k" H 950 350 60  0000 C CNN
F 2 "~" H 950 1000 60  0000 C CNN
F 3 "~" H 950 1000 60  0000 C CNN
	1    950  1000
	-1   0    0    -1  
$EndComp
$Comp
L YC124 U13
U 1 1 5211E29E
P 4500 2800
F 0 "U13" H 4510 3020 60  0000 C CNN
F 1 "1k" H 4480 2560 60  0000 C CNN
F 2 "" H 4500 2800 60  0000 C CNN
F 3 "" H 4500 2800 60  0000 C CNN
	1    4500 2800
	1    0    0    1   
$EndComp
$Comp
L YC124 U14
U 1 1 52120048
P 4500 6000
F 0 "U14" H 4510 6220 60  0000 C CNN
F 1 "1k" H 4480 5760 60  0000 C CNN
F 2 "" H 4500 6000 60  0000 C CNN
F 3 "" H 4500 6000 60  0000 C CNN
	1    4500 6000
	1    0    0    1   
$EndComp
$Comp
L YC124 U15
U 1 1 52120A0D
P 10300 2700
F 0 "U15" H 10310 2920 60  0000 C CNN
F 1 "1k" H 10280 2460 60  0000 C CNN
F 2 "" H 10300 2700 60  0000 C CNN
F 3 "" H 10300 2700 60  0000 C CNN
	1    10300 2700
	1    0    0    1   
$EndComp
$Comp
L YC124 U16
U 1 1 521213F4
P 10300 5900
F 0 "U16" H 10310 6120 60  0000 C CNN
F 1 "1k" H 10280 5660 60  0000 C CNN
F 2 "" H 10300 5900 60  0000 C CNN
F 3 "" H 10300 5900 60  0000 C CNN
	1    10300 5900
	1    0    0    1   
$EndComp
$Comp
L CONN_8X2 P6
U 1 1 5212A456
P 5350 6000
F 0 "P6" V 5300 6000 50  0000 C CNN
F 1 "NAND_OUT_B" V 5400 6000 50  0000 C CNN
F 2 "~" H 5350 6000 60  0000 C CNN
F 3 "~" H 5350 6000 60  0000 C CNN
	1    5350 6000
	1    0    0    -1  
$EndComp
$Comp
L CONN_8X2 P13
U 1 1 5212A6DB
P 11150 2700
F 0 "P13" V 11100 2700 50  0000 C CNN
F 1 "NAND_OUT_C" V 11200 2700 50  0000 C CNN
F 2 "~" H 11150 2700 60  0000 C CNN
F 3 "~" H 11150 2700 60  0000 C CNN
	1    11150 2700
	1    0    0    -1  
$EndComp
$Comp
L CONN_8X2 P14
U 1 1 5212A72F
P 11150 5900
F 0 "P14" V 11100 5900 50  0000 C CNN
F 1 "NAND_OUT_D" V 11200 5900 50  0000 C CNN
F 2 "~" H 11150 5900 60  0000 C CNN
F 3 "~" H 11150 5900 60  0000 C CNN
	1    11150 5900
	1    0    0    -1  
$EndComp
$Comp
L MOUNTING_HOLE H1
U 1 1 521323DA
P 1000 7400
F 0 "H1" H 1000 7550 60  0000 C CNN
F 1 "MOUNTING_HOLE" H 1050 7200 60  0000 C CNN
F 2 "~" H 1000 7400 60  0000 C CNN
F 3 "~" H 1000 7400 60  0000 C CNN
	1    1000 7400
	1    0    0    -1  
$EndComp
$Comp
L MOUNTING_HOLE H2
U 1 1 521323E9
P 1750 7400
F 0 "H2" H 1750 7550 60  0000 C CNN
F 1 "MOUNTING_HOLE" H 1800 7200 60  0000 C CNN
F 2 "~" H 1750 7400 60  0000 C CNN
F 3 "~" H 1750 7400 60  0000 C CNN
	1    1750 7400
	1    0    0    -1  
$EndComp
$Comp
L MOUNTING_HOLE H3
U 1 1 521323F8
P 2500 7400
F 0 "H3" H 2500 7550 60  0000 C CNN
F 1 "MOUNTING_HOLE" H 2550 7200 60  0000 C CNN
F 2 "~" H 2500 7400 60  0000 C CNN
F 3 "~" H 2500 7400 60  0000 C CNN
	1    2500 7400
	1    0    0    -1  
$EndComp
$Comp
L MOUNTING_HOLE H4
U 1 1 52132407
P 3250 7400
F 0 "H4" H 3250 7550 60  0000 C CNN
F 1 "MOUNTING_HOLE" H 3300 7200 60  0000 C CNN
F 2 "~" H 3250 7400 60  0000 C CNN
F 3 "~" H 3250 7400 60  0000 C CNN
	1    3250 7400
	1    0    0    -1  
$EndComp
Text Notes 1100 7200 0    60   ~ 0
Mechanicals
$Comp
L SW_PUSH SW1
U 1 1 53D2839B
P 4000 1000
F 0 "SW1" H 4150 1110 50  0000 C CNN
F 1 "Switch 1" H 4000 920 50  0000 C CNN
F 2 "~" H 4000 1000 60  0000 C CNN
F 3 "~" H 4000 1000 60  0000 C CNN
	1    4000 1000
	1    0    0    -1  
$EndComp
$Comp
L SW_PUSH SW2
U 1 1 53D283AA
P 4000 1300
F 0 "SW2" H 4150 1410 50  0000 C CNN
F 1 "Switch 2" H 4000 1220 50  0000 C CNN
F 2 "~" H 4000 1300 60  0000 C CNN
F 3 "~" H 4000 1300 60  0000 C CNN
	1    4000 1300
	1    0    0    -1  
$EndComp
$Comp
L LED D17
U 1 1 53D28446
P 5300 950
F 0 "D17" H 5300 1050 50  0000 C CNN
F 1 "LED" H 5300 850 50  0000 C CNN
F 2 "~" H 5300 950 60  0000 C CNN
F 3 "~" H 5300 950 60  0000 C CNN
	1    5300 950 
	1    0    0    -1  
$EndComp
$Comp
L LED D18
U 1 1 53D28451
P 5300 1350
F 0 "D18" H 5300 1450 50  0000 C CNN
F 1 "LED" H 5300 1250 50  0000 C CNN
F 2 "~" H 5300 1350 60  0000 C CNN
F 3 "~" H 5300 1350 60  0000 C CNN
	1    5300 1350
	1    0    0    -1  
$EndComp
Wire Wire Line
	10000 6300 10000 6050
Wire Wire Line
	8950 6300 10000 6300
Wire Wire Line
	10000 5950 8950 5950
Wire Wire Line
	8950 5850 10000 5850
Wire Wire Line
	10000 5300 10000 5750
Wire Wire Line
	10600 5750 10600 5550
Wire Wire Line
	10000 3100 10000 2850
Wire Wire Line
	8950 3100 10000 3100
Wire Wire Line
	10000 2750 8950 2750
Wire Wire Line
	8950 2650 10000 2650
Wire Wire Line
	9900 2550 10000 2550
Wire Wire Line
	9900 2100 9900 2550
Wire Wire Line
	10600 2550 10600 2350
Wire Wire Line
	4200 6350 4200 6150
Wire Wire Line
	3100 6350 4200 6350
Wire Wire Line
	4200 6050 3100 6050
Wire Wire Line
	3100 5950 4200 5950
Wire Wire Line
	4050 5850 4200 5850
Wire Wire Line
	4850 3150 5000 3150
Wire Wire Line
	4850 2950 4850 3150
Wire Wire Line
	4800 2950 4850 2950
Wire Wire Line
	4800 2850 5000 2850
Wire Wire Line
	4800 2750 5000 2750
Wire Wire Line
	4800 2450 5000 2450
Wire Wire Line
	4800 2650 4800 2450
Wire Wire Line
	4200 3200 4200 2950
Wire Wire Line
	3100 2850 4200 2850
Wire Wire Line
	3100 2750 4200 2750
Wire Wire Line
	4200 2200 4200 2650
Wire Wire Line
	4150 4250 4250 4250
Wire Wire Line
	4150 3500 4150 4250
Wire Wire Line
	4050 4150 4250 4150
Wire Wire Line
	4050 3000 4050 4150
Wire Wire Line
	3950 4050 4250 4050
Wire Wire Line
	3950 2500 3950 4050
Wire Wire Line
	4000 3950 4000 2000
Wire Wire Line
	4250 3950 4000 3950
Wire Wire Line
	4150 3500 3600 3500
Wire Wire Line
	4050 5400 4050 5850
Connection ~ 4950 3150
Wire Wire Line
	4950 3050 5000 3050
Wire Wire Line
	4950 3050 4950 3250
Connection ~ 4950 2850
Wire Wire Line
	4950 2950 5000 2950
Wire Wire Line
	4950 2850 4950 2950
Connection ~ 4950 2750
Wire Wire Line
	4950 2650 5000 2650
Wire Wire Line
	4950 2750 4950 2650
Connection ~ 4950 2450
Wire Wire Line
	4950 2550 5000 2550
Wire Wire Line
	4950 2350 4950 2550
Wire Notes Line
	8700 1700 8700 550 
Wire Notes Line
	10450 1700 8700 1700
Wire Notes Line
	10450 550  10450 1700
Wire Notes Line
	8700 550  10450 550 
Wire Notes Line
	1750 1700 1750 600 
Wire Notes Line
	3350 1700 1750 1700
Wire Notes Line
	3350 600  3350 1700
Wire Notes Line
	1750 600  3350 600 
Connection ~ 9750 1400
Wire Wire Line
	9750 1500 9850 1500
Connection ~ 9750 1300
Wire Wire Line
	9750 1400 9850 1400
Connection ~ 9750 1200
Wire Wire Line
	9750 1300 9850 1300
Connection ~ 9750 1100
Wire Wire Line
	9750 1200 9850 1200
Connection ~ 9750 1000
Wire Wire Line
	9750 1100 9850 1100
Connection ~ 9750 900 
Wire Wire Line
	9750 1000 9850 1000
Connection ~ 9750 800 
Wire Wire Line
	9750 900  9850 900 
Wire Wire Line
	9750 800  9850 800 
Wire Wire Line
	9750 700  9750 1500
Connection ~ 9000 1400
Wire Wire Line
	9000 1500 9100 1500
Connection ~ 9000 1300
Wire Wire Line
	9000 1400 9100 1400
Connection ~ 9000 1200
Wire Wire Line
	9000 1300 9100 1300
Connection ~ 9000 1100
Wire Wire Line
	9000 1200 9100 1200
Connection ~ 9000 1000
Wire Wire Line
	9000 1100 9100 1100
Connection ~ 9000 900 
Wire Wire Line
	9000 1000 9100 1000
Connection ~ 9000 800 
Wire Wire Line
	9000 900  9100 900 
Wire Wire Line
	9000 800  9100 800 
Wire Wire Line
	9000 700  9000 1500
Connection ~ 2650 1450
Wire Wire Line
	2650 1550 2750 1550
Connection ~ 2650 1350
Wire Wire Line
	2650 1450 2750 1450
Connection ~ 2650 1250
Wire Wire Line
	2650 1350 2750 1350
Connection ~ 2650 1150
Wire Wire Line
	2650 1250 2750 1250
Connection ~ 2650 1050
Wire Wire Line
	2650 1150 2750 1150
Connection ~ 2650 950 
Wire Wire Line
	2650 1050 2750 1050
Connection ~ 2650 850 
Wire Wire Line
	2650 950  2750 950 
Wire Wire Line
	2650 850  2750 850 
Wire Wire Line
	2650 750  2650 1550
Wire Wire Line
	1900 1550 2000 1550
Connection ~ 1900 1350
Wire Wire Line
	1900 1350 2000 1350
Connection ~ 1900 1150
Wire Wire Line
	1900 1150 2000 1150
Connection ~ 1900 950 
Connection ~ 1900 850 
Wire Wire Line
	1900 950  2000 950 
Wire Wire Line
	1900 850  2000 850 
Wire Notes Line
	6250 7700 4100 7700
Wire Notes Line
	6250 6600 6250 7700
Wire Notes Line
	4100 6600 6250 6600
Wire Wire Line
	6850 3500 7500 3500
Wire Wire Line
	6950 3300 7500 3300
Wire Wire Line
	1000 3600 1650 3600
Wire Wire Line
	1100 3400 1650 3400
Connection ~ 5400 6900
Wire Wire Line
	5600 6900 5600 7100
Connection ~ 5400 7450
Wire Wire Line
	5600 7450 5600 7300
Connection ~ 5150 7450
Wire Wire Line
	5400 7450 5400 7400
Connection ~ 4950 7450
Wire Wire Line
	5150 7450 5150 7400
Wire Wire Line
	4950 7450 5600 7450
Connection ~ 5150 6900
Wire Wire Line
	5400 6900 5400 7000
Connection ~ 4950 6900
Wire Wire Line
	4950 6900 5600 6900
Wire Wire Line
	5150 7000 5150 6900
Wire Wire Line
	4950 6850 4950 7000
Wire Wire Line
	4950 7500 4950 7400
Wire Wire Line
	8750 6600 9050 6600
Wire Wire Line
	8750 6100 9050 6100
Wire Wire Line
	8750 5600 9050 5600
Wire Wire Line
	8750 5100 9050 5100
Wire Wire Line
	8700 3400 9050 3400
Wire Wire Line
	8750 2900 9050 2900
Wire Wire Line
	8750 2400 9050 2400
Wire Wire Line
	8750 1900 9050 1900
Connection ~ 10800 3950
Wire Wire Line
	10700 3850 10800 3850
Connection ~ 10800 4050
Wire Wire Line
	10700 3950 10800 3950
Connection ~ 10800 4150
Wire Wire Line
	10700 4050 10800 4050
Connection ~ 10800 4250
Wire Wire Line
	10700 4150 10800 4150
Connection ~ 10800 4350
Wire Wire Line
	10700 4250 10800 4250
Connection ~ 10800 4450
Wire Wire Line
	10700 4350 10800 4350
Connection ~ 10800 4550
Wire Wire Line
	10700 4450 10800 4450
Wire Wire Line
	10800 4550 10700 4550
Wire Wire Line
	10800 3850 10800 4700
Wire Wire Line
	8900 5300 10000 5300
Wire Wire Line
	9850 6600 9450 6600
Wire Wire Line
	9850 4550 9850 6600
Wire Wire Line
	10100 4550 9850 4550
Wire Wire Line
	9800 4450 10100 4450
Wire Wire Line
	9800 6100 9800 4450
Wire Wire Line
	9450 6100 9800 6100
Wire Wire Line
	9750 4350 10100 4350
Wire Wire Line
	9750 5600 9750 4350
Wire Wire Line
	9450 5600 9750 5600
Wire Wire Line
	9650 4250 10100 4250
Wire Wire Line
	9650 5100 9650 4250
Wire Wire Line
	9450 5100 9650 5100
Wire Wire Line
	9850 3850 10100 3850
Wire Wire Line
	9850 1900 9850 3850
Wire Wire Line
	9450 1900 9850 1900
Wire Wire Line
	9800 3950 10100 3950
Wire Wire Line
	9800 2400 9800 3950
Wire Wire Line
	9450 2400 9800 2400
Wire Wire Line
	9700 4050 10100 4050
Wire Wire Line
	9700 2900 9700 4050
Wire Wire Line
	9450 2900 9700 2900
Wire Wire Line
	9650 4150 10100 4150
Wire Wire Line
	9650 3400 9650 4150
Wire Wire Line
	9450 3400 9650 3400
Connection ~ 7100 6700
Wire Wire Line
	7100 4650 7100 6700
Wire Wire Line
	6600 4650 7100 4650
Connection ~ 7150 6500
Wire Wire Line
	7150 4550 7150 6500
Wire Wire Line
	6600 4550 7150 4550
Connection ~ 7200 6200
Wire Wire Line
	7200 4450 7200 6200
Wire Wire Line
	6600 4450 7200 4450
Connection ~ 7250 6000
Wire Wire Line
	7250 4350 7250 6000
Wire Wire Line
	6600 4350 7250 4350
Connection ~ 7300 5700
Wire Wire Line
	7300 4250 7300 5700
Wire Wire Line
	6600 4250 7300 4250
Connection ~ 7350 5500
Wire Wire Line
	7350 4150 6600 4150
Wire Wire Line
	7350 5500 7350 4150
Connection ~ 7400 5200
Wire Wire Line
	7400 4050 6600 4050
Wire Wire Line
	7400 5200 7400 4050
Connection ~ 7450 5000
Wire Wire Line
	7450 3950 6600 3950
Wire Wire Line
	7450 5000 7450 3950
Connection ~ 5950 4050
Wire Wire Line
	6000 3950 5950 3950
Connection ~ 5950 4150
Wire Wire Line
	6000 4050 5950 4050
Connection ~ 5950 4250
Wire Wire Line
	5950 4150 6000 4150
Connection ~ 5950 4350
Wire Wire Line
	5950 4250 6000 4250
Connection ~ 5950 4450
Wire Wire Line
	5950 4350 6000 4350
Connection ~ 5950 4550
Wire Wire Line
	5950 4450 6000 4450
Connection ~ 5950 4650
Wire Wire Line
	5950 4550 6000 4550
Wire Wire Line
	5950 4650 6000 4650
Wire Wire Line
	5950 3950 5950 4800
Connection ~ 8950 6600
Wire Wire Line
	8950 6600 8950 6300
Connection ~ 8950 6100
Wire Wire Line
	8950 5950 8950 6100
Connection ~ 8950 5600
Wire Wire Line
	8950 5600 8950 5850
Connection ~ 8900 5100
Wire Wire Line
	8900 5300 8900 5100
Wire Wire Line
	6850 6700 7550 6700
Wire Wire Line
	6850 6250 6850 6700
Wire Wire Line
	6950 6500 7550 6500
Wire Wire Line
	6950 6150 6950 6500
Wire Wire Line
	6050 6150 6950 6150
Wire Wire Line
	7000 6200 7550 6200
Wire Wire Line
	7000 6050 7000 6200
Wire Wire Line
	6050 6050 7000 6050
Wire Wire Line
	7000 6000 7550 6000
Wire Wire Line
	7000 5950 7000 6000
Wire Wire Line
	6050 5950 7000 5950
Wire Wire Line
	6050 5850 7000 5850
Wire Wire Line
	7000 5850 7000 5700
Wire Wire Line
	7000 5700 7550 5700
Wire Wire Line
	6050 5750 6950 5750
Wire Wire Line
	6950 5750 6950 5500
Wire Wire Line
	6950 5500 7550 5500
Wire Wire Line
	6050 5650 6900 5650
Wire Wire Line
	6900 5650 6900 5200
Wire Wire Line
	6900 5200 7550 5200
Wire Wire Line
	6850 5000 6850 5550
Wire Wire Line
	7550 5000 6850 5000
Connection ~ 7100 3500
Wire Wire Line
	7100 1450 7100 3500
Wire Wire Line
	6600 1450 7100 1450
Connection ~ 7150 3300
Wire Wire Line
	7150 1350 7150 3300
Wire Wire Line
	6600 1350 7150 1350
Connection ~ 7200 3000
Wire Wire Line
	7200 1250 7200 3000
Wire Wire Line
	6600 1250 7200 1250
Connection ~ 7250 2800
Wire Wire Line
	7250 1150 7250 2800
Wire Wire Line
	6600 1150 7250 1150
Connection ~ 7300 2500
Wire Wire Line
	7300 1050 7300 2500
Wire Wire Line
	6600 1050 7300 1050
Connection ~ 7350 2300
Wire Wire Line
	7350 950  6600 950 
Wire Wire Line
	7350 2300 7350 950 
Connection ~ 7400 2000
Wire Wire Line
	7400 850  6600 850 
Wire Wire Line
	7400 2000 7400 850 
Connection ~ 7450 1800
Wire Wire Line
	7450 750  6600 750 
Wire Wire Line
	7450 1800 7450 750 
Connection ~ 5950 850 
Wire Wire Line
	6000 750  5950 750 
Connection ~ 5950 950 
Wire Wire Line
	6000 850  5950 850 
Connection ~ 5950 1050
Wire Wire Line
	5950 950  6000 950 
Connection ~ 5950 1150
Wire Wire Line
	5950 1050 6000 1050
Connection ~ 5950 1250
Wire Wire Line
	5950 1150 6000 1150
Connection ~ 5950 1350
Wire Wire Line
	5950 1250 6000 1250
Connection ~ 5950 1450
Wire Wire Line
	5950 1350 6000 1350
Wire Wire Line
	5950 1450 6000 1450
Wire Wire Line
	5950 750  5950 1600
Connection ~ 8950 3400
Wire Wire Line
	8950 3400 8950 3100
Connection ~ 8950 2900
Wire Wire Line
	8950 2750 8950 2900
Connection ~ 8950 2400
Wire Wire Line
	8950 2400 8950 2650
Connection ~ 8900 1900
Wire Wire Line
	8900 2100 8900 1900
Wire Wire Line
	8900 2100 9900 2100
Wire Wire Line
	6850 3050 6850 3500
Wire Wire Line
	6950 2950 6950 3300
Wire Wire Line
	6050 2950 6950 2950
Wire Wire Line
	7000 3000 7550 3000
Wire Wire Line
	7000 2850 7000 3000
Wire Wire Line
	6050 2850 7000 2850
Wire Wire Line
	7000 2800 7550 2800
Wire Wire Line
	7000 2750 7000 2800
Wire Wire Line
	6050 2750 7000 2750
Wire Wire Line
	6050 2650 7000 2650
Wire Wire Line
	7000 2650 7000 2500
Wire Wire Line
	7000 2500 7550 2500
Wire Wire Line
	6050 2550 6950 2550
Wire Wire Line
	6950 2550 6950 2300
Wire Wire Line
	6950 2300 7550 2300
Wire Wire Line
	6050 2450 6900 2450
Wire Wire Line
	6900 2450 6900 2000
Wire Wire Line
	6900 2000 7550 2000
Wire Wire Line
	6850 1800 6850 2350
Wire Wire Line
	7550 1800 6850 1800
Wire Wire Line
	2900 6700 3200 6700
Wire Wire Line
	2900 6200 3200 6200
Wire Wire Line
	2900 5700 3200 5700
Wire Wire Line
	2900 5200 3200 5200
Wire Wire Line
	2850 3500 3200 3500
Wire Wire Line
	2900 3000 3200 3000
Wire Wire Line
	2900 2500 3200 2500
Wire Wire Line
	2900 2000 3200 2000
Connection ~ 4950 4050
Wire Wire Line
	4850 3950 4950 3950
Connection ~ 4950 4150
Wire Wire Line
	4850 4050 4950 4050
Connection ~ 4950 4250
Wire Wire Line
	4850 4150 4950 4150
Connection ~ 4950 4350
Wire Wire Line
	4850 4250 4950 4250
Connection ~ 4950 4450
Wire Wire Line
	4850 4350 4950 4350
Connection ~ 4950 4550
Wire Wire Line
	4850 4450 4950 4450
Connection ~ 4950 4650
Wire Wire Line
	4850 4550 4950 4550
Wire Wire Line
	4950 4650 4850 4650
Wire Wire Line
	4950 3950 4950 4800
Wire Wire Line
	3050 5400 4050 5400
Wire Wire Line
	4000 6700 3600 6700
Wire Wire Line
	4000 4650 4000 6700
Wire Wire Line
	4250 4650 4000 4650
Wire Wire Line
	3950 4550 4250 4550
Wire Wire Line
	3950 6200 3950 4550
Wire Wire Line
	3600 6200 3950 6200
Wire Wire Line
	3900 4450 4250 4450
Wire Wire Line
	3900 5700 3900 4450
Wire Wire Line
	3600 5700 3900 5700
Wire Wire Line
	3800 4350 4250 4350
Wire Wire Line
	3800 5200 3800 4350
Wire Wire Line
	3600 5200 3800 5200
Wire Wire Line
	4000 2000 3600 2000
Wire Wire Line
	3600 2500 3950 2500
Wire Wire Line
	3600 3000 4050 3000
Connection ~ 1250 6800
Wire Wire Line
	1250 4750 1250 6800
Connection ~ 1300 6600
Wire Wire Line
	1300 4650 1300 6600
Connection ~ 1350 6300
Wire Wire Line
	1350 4550 1350 6300
Connection ~ 1400 6100
Wire Wire Line
	1400 4450 1400 6100
Connection ~ 1450 5800
Wire Wire Line
	1450 4350 1450 5800
Connection ~ 1500 5600
Wire Wire Line
	1500 5600 1500 4250
Connection ~ 1550 5300
Wire Wire Line
	1550 5300 1550 4150
Connection ~ 1600 5100
Wire Wire Line
	1600 5100 1600 4050
Connection ~ 600  4150
Wire Wire Line
	650  4050 600  4050
Connection ~ 600  4250
Wire Wire Line
	650  4150 600  4150
Connection ~ 600  4350
Wire Wire Line
	600  4250 650  4250
Connection ~ 600  4450
Wire Wire Line
	600  4350 650  4350
Connection ~ 600  4550
Wire Wire Line
	600  4450 650  4450
Connection ~ 600  4650
Wire Wire Line
	600  4550 650  4550
Connection ~ 600  4750
Wire Wire Line
	600  4650 650  4650
Wire Wire Line
	600  4750 650  4750
Wire Wire Line
	600  4050 600  4900
Connection ~ 3100 6700
Wire Wire Line
	3100 6350 3100 6700
Connection ~ 3100 6200
Wire Wire Line
	3100 6050 3100 6200
Connection ~ 3100 5700
Wire Wire Line
	3100 5700 3100 5950
Connection ~ 3050 5200
Wire Wire Line
	3050 5400 3050 5200
Wire Wire Line
	1000 6800 1700 6800
Wire Wire Line
	1000 6350 1000 6800
Wire Wire Line
	1100 6600 1700 6600
Wire Wire Line
	1100 6250 1100 6600
Wire Wire Line
	200  6250 1100 6250
Wire Wire Line
	1150 6300 1700 6300
Wire Wire Line
	1150 6150 1150 6300
Wire Wire Line
	200  6150 1150 6150
Wire Wire Line
	1150 6100 1700 6100
Wire Wire Line
	1150 6050 1150 6100
Wire Wire Line
	200  6050 1150 6050
Wire Wire Line
	200  5950 1150 5950
Wire Wire Line
	1150 5950 1150 5800
Wire Wire Line
	1150 5800 1700 5800
Wire Wire Line
	200  5850 1100 5850
Wire Wire Line
	1100 5850 1100 5600
Wire Wire Line
	1100 5600 1700 5600
Wire Wire Line
	200  5750 1050 5750
Wire Wire Line
	1050 5750 1050 5300
Wire Wire Line
	1050 5300 1700 5300
Wire Wire Line
	1000 5100 1000 5650
Wire Wire Line
	1700 5100 1000 5100
Connection ~ 1250 3600
Wire Wire Line
	1250 1550 1250 3600
Connection ~ 1300 3400
Wire Wire Line
	1300 1450 1300 3400
Connection ~ 1350 3100
Wire Wire Line
	1350 1350 1350 3100
Connection ~ 1400 2900
Wire Wire Line
	1400 1250 1400 2900
Connection ~ 1450 2600
Wire Wire Line
	1450 1150 1450 2600
Connection ~ 1500 2400
Wire Wire Line
	1500 2400 1500 1050
Connection ~ 1550 2100
Wire Wire Line
	1550 2100 1550 950 
Connection ~ 1600 1900
Wire Wire Line
	1600 1900 1600 850 
Connection ~ 600  950 
Wire Wire Line
	650  850  600  850 
Connection ~ 600  1050
Wire Wire Line
	650  950  600  950 
Connection ~ 600  1150
Wire Wire Line
	600  1050 650  1050
Connection ~ 600  1250
Wire Wire Line
	600  1150 650  1150
Connection ~ 600  1350
Wire Wire Line
	600  1250 650  1250
Connection ~ 600  1450
Wire Wire Line
	600  1350 650  1350
Connection ~ 600  1550
Wire Wire Line
	600  1450 650  1450
Wire Wire Line
	600  1550 650  1550
Wire Wire Line
	600  850  600  1700
Connection ~ 3100 3500
Wire Wire Line
	3100 3200 4200 3200
Wire Wire Line
	3100 3500 3100 3200
Connection ~ 3100 3000
Wire Wire Line
	3100 2850 3100 3000
Connection ~ 3100 2500
Wire Wire Line
	3100 2500 3100 2750
Connection ~ 3050 2000
Wire Wire Line
	3050 2200 3050 2000
Wire Wire Line
	3050 2200 4200 2200
Wire Wire Line
	1000 3150 1000 3600
Wire Wire Line
	1100 3050 1100 3400
Wire Wire Line
	200  3050 1100 3050
Wire Wire Line
	1150 3100 1700 3100
Wire Wire Line
	1150 2950 1150 3100
Wire Wire Line
	200  2950 1150 2950
Wire Wire Line
	1150 2900 1700 2900
Wire Wire Line
	1150 2850 1150 2900
Wire Wire Line
	200  2850 1150 2850
Wire Wire Line
	200  2750 1150 2750
Wire Wire Line
	1150 2750 1150 2600
Wire Wire Line
	1150 2600 1700 2600
Wire Wire Line
	200  2650 1100 2650
Wire Wire Line
	1100 2650 1100 2400
Wire Wire Line
	1100 2400 1700 2400
Wire Wire Line
	200  2550 1050 2550
Wire Wire Line
	1050 2550 1050 2100
Wire Wire Line
	1050 2100 1700 2100
Wire Wire Line
	1000 1900 1000 2450
Wire Wire Line
	1700 1900 1000 1900
Wire Wire Line
	5750 2350 5750 2550
Wire Wire Line
	5750 2350 4950 2350
Connection ~ 5750 2450
Wire Wire Line
	5750 2750 5750 2650
Wire Wire Line
	5750 2850 5750 2950
Wire Wire Line
	5750 3050 5750 3250
Wire Wire Line
	5750 3250 4950 3250
Connection ~ 5750 3150
Wire Wire Line
	5750 2950 5800 2950
Wire Wire Line
	5800 2950 5800 3300
Wire Wire Line
	5800 3300 4900 3300
Wire Wire Line
	4900 3300 4900 2850
Connection ~ 4900 2850
Wire Wire Line
	5750 2650 5800 2650
Wire Wire Line
	5800 2650 5800 2300
Wire Wire Line
	5800 2300 4900 2300
Wire Wire Line
	4900 2300 4900 2750
Connection ~ 4900 2750
Wire Wire Line
	4850 6350 5000 6350
Wire Wire Line
	4850 6150 4850 6350
Wire Wire Line
	4800 6150 4850 6150
Wire Wire Line
	4800 6050 5000 6050
Wire Wire Line
	4800 5950 5000 5950
Wire Wire Line
	4800 5650 5000 5650
Connection ~ 4950 6350
Wire Wire Line
	4950 6250 5000 6250
Wire Wire Line
	4950 6250 4950 6450
Connection ~ 4950 6050
Wire Wire Line
	4950 6150 5000 6150
Wire Wire Line
	4950 6050 4950 6150
Connection ~ 4950 5950
Wire Wire Line
	4950 5850 5000 5850
Wire Wire Line
	4950 5950 4950 5850
Connection ~ 4950 5650
Wire Wire Line
	4950 5750 5000 5750
Wire Wire Line
	4950 5550 4950 5750
Wire Wire Line
	5750 5550 5750 5750
Wire Wire Line
	5750 5550 4950 5550
Connection ~ 5750 5650
Wire Wire Line
	5750 5950 5750 5850
Wire Wire Line
	5750 6050 5750 6150
Wire Wire Line
	5750 6250 5750 6450
Wire Wire Line
	5750 6450 4950 6450
Connection ~ 5750 6350
Wire Wire Line
	5750 6150 5800 6150
Wire Wire Line
	5800 6150 5800 6500
Wire Wire Line
	5800 6500 4900 6500
Wire Wire Line
	4900 6500 4900 6050
Connection ~ 4900 6050
Wire Wire Line
	5750 5850 5800 5850
Wire Wire Line
	5800 5850 5800 5500
Wire Wire Line
	5800 5500 4900 5500
Wire Wire Line
	4900 5500 4900 5950
Connection ~ 4900 5950
Wire Wire Line
	4800 5850 4800 5650
Wire Wire Line
	10650 3050 10800 3050
Wire Wire Line
	10650 2850 10650 3050
Wire Wire Line
	10600 2850 10650 2850
Wire Wire Line
	10600 2750 10800 2750
Wire Wire Line
	10600 2650 10800 2650
Wire Wire Line
	10600 2350 10800 2350
Connection ~ 10750 3050
Wire Wire Line
	10750 2950 10800 2950
Wire Wire Line
	10750 2950 10750 3150
Connection ~ 10750 2750
Wire Wire Line
	10750 2850 10800 2850
Wire Wire Line
	10750 2750 10750 2850
Connection ~ 10750 2650
Wire Wire Line
	10750 2550 10800 2550
Wire Wire Line
	10750 2650 10750 2550
Connection ~ 10750 2350
Wire Wire Line
	10750 2450 10800 2450
Wire Wire Line
	10750 2250 10750 2450
Wire Wire Line
	11550 2250 11550 2450
Wire Wire Line
	11550 2250 10750 2250
Connection ~ 11550 2350
Wire Wire Line
	11550 2650 11550 2550
Wire Wire Line
	11550 2750 11550 2850
Wire Wire Line
	11550 2950 11550 3150
Wire Wire Line
	11550 3150 10750 3150
Connection ~ 11550 3050
Wire Wire Line
	11550 2850 11600 2850
Wire Wire Line
	11600 2850 11600 3200
Wire Wire Line
	11600 3200 10700 3200
Wire Wire Line
	10700 3200 10700 2750
Connection ~ 10700 2750
Wire Wire Line
	11550 2550 11600 2550
Wire Wire Line
	11600 2550 11600 2200
Wire Wire Line
	11600 2200 10700 2200
Wire Wire Line
	10700 2200 10700 2650
Connection ~ 10700 2650
Wire Wire Line
	10650 6250 10800 6250
Wire Wire Line
	10650 6050 10650 6250
Wire Wire Line
	10600 6050 10650 6050
Wire Wire Line
	10600 5950 10800 5950
Wire Wire Line
	10600 5850 10800 5850
Wire Wire Line
	10600 5550 10800 5550
Connection ~ 10750 6250
Wire Wire Line
	10750 6150 10800 6150
Wire Wire Line
	10750 6150 10750 6350
Connection ~ 10750 5950
Wire Wire Line
	10750 6050 10800 6050
Wire Wire Line
	10750 5950 10750 6050
Connection ~ 10750 5850
Wire Wire Line
	10750 5750 10800 5750
Wire Wire Line
	10750 5850 10750 5750
Connection ~ 10750 5550
Wire Wire Line
	10750 5650 10800 5650
Wire Wire Line
	10750 5450 10750 5650
Wire Wire Line
	11550 5450 11550 5650
Wire Wire Line
	11550 5450 10750 5450
Connection ~ 11550 5550
Wire Wire Line
	11550 5850 11550 5750
Wire Wire Line
	11550 5950 11550 6050
Wire Wire Line
	11550 6150 11550 6350
Wire Wire Line
	11550 6350 10750 6350
Connection ~ 11550 6250
Wire Wire Line
	11550 6050 11600 6050
Wire Wire Line
	11600 6050 11600 6400
Wire Wire Line
	11600 6400 10700 6400
Wire Wire Line
	10700 6400 10700 5950
Connection ~ 10700 5950
Wire Wire Line
	11550 5750 11600 5750
Wire Wire Line
	11600 5750 11600 5400
Wire Wire Line
	11600 5400 10700 5400
Wire Wire Line
	10700 5400 10700 5850
Connection ~ 10700 5850
Wire Notes Line
	600  7100 3700 7100
Wire Notes Line
	3700 7100 3700 7700
Wire Notes Line
	3700 7700 600  7700
Wire Notes Line
	600  7700 600  7100
Wire Notes Line
	4100 7700 4100 6600
Wire Wire Line
	1300 1450 1250 1450
Wire Wire Line
	1250 1350 1350 1350
Wire Wire Line
	1400 1250 1250 1250
Wire Wire Line
	1250 1150 1450 1150
Wire Wire Line
	1500 1050 1250 1050
Wire Wire Line
	1600 850  1250 850 
Wire Wire Line
	1300 4650 1250 4650
Wire Wire Line
	1250 4550 1350 4550
Wire Wire Line
	1400 4450 1250 4450
Wire Wire Line
	1450 4350 1250 4350
Wire Wire Line
	1500 4250 1250 4250
Wire Wire Line
	1550 4150 1250 4150
Wire Wire Line
	1600 4050 1250 4050
Wire Wire Line
	1550 950  1250 950 
Connection ~ 1000 2750
Connection ~ 1000 2850
Connection ~ 1000 2950
Connection ~ 1000 3050
Wire Wire Line
	1000 3150 200  3150
Connection ~ 1000 2650
Connection ~ 1000 2550
Wire Wire Line
	1000 2450 200  2450
Connection ~ 1000 5750
Connection ~ 1000 5850
Wire Wire Line
	1000 5650 200  5650
Connection ~ 1000 5950
Connection ~ 1000 6050
Connection ~ 1000 6150
Connection ~ 1000 6250
Wire Wire Line
	1000 6350 200  6350
Wire Wire Line
	6850 2350 6050 2350
Connection ~ 6850 2450
Connection ~ 6850 2550
Connection ~ 6850 2650
Connection ~ 6850 2750
Connection ~ 6850 2850
Connection ~ 6850 2950
Wire Wire Line
	6050 3050 6850 3050
Wire Wire Line
	6850 5550 6050 5550
Connection ~ 6850 5650
Connection ~ 6850 5750
Connection ~ 6850 5850
Connection ~ 6850 5950
Connection ~ 6850 6050
Connection ~ 6850 6150
Wire Wire Line
	6850 6250 6050 6250
$Comp
L YC124 U17
U 1 1 53D289A2
P 4700 1150
F 0 "U17" H 4710 1370 60  0000 C CNN
F 1 "560R" H 4680 910 60  0000 C CNN
F 2 "" H 4700 1150 60  0000 C CNN
F 3 "" H 4700 1150 60  0000 C CNN
	1    4700 1150
	1    0    0    1   
$EndComp
$Comp
L GND #PWR013
U 1 1 53D28F3A
P 5500 1550
F 0 "#PWR013" H 5500 1550 30  0001 C CNN
F 1 "GND" H 5500 1480 30  0001 C CNN
F 2 "" H 5500 1550 60  0000 C CNN
F 3 "" H 5500 1550 60  0000 C CNN
	1    5500 1550
	1    0    0    -1  
$EndComp
Wire Wire Line
	5500 950  5500 1550
Connection ~ 5500 1350
Wire Wire Line
	5000 1300 5100 1300
Wire Wire Line
	5100 1300 5100 1350
Wire Wire Line
	5000 1000 5100 1000
Wire Wire Line
	5100 1000 5100 950 
Wire Wire Line
	4300 1300 4400 1300
Wire Wire Line
	4300 1000 4400 1000
Wire Wire Line
	4350 1100 4400 1100
Wire Wire Line
	4350 750  4350 1100
Connection ~ 4350 1000
Wire Wire Line
	4400 1200 4350 1200
Wire Wire Line
	4350 1200 4350 1550
Connection ~ 4350 1300
Wire Wire Line
	5000 1200 5500 1200
Connection ~ 5500 1200
Wire Wire Line
	5000 1100 5500 1100
Connection ~ 5500 1100
$Comp
L VCC #PWR014
U 1 1 53D2ACE1
P 3700 850
F 0 "#PWR014" H 3700 950 30  0001 C CNN
F 1 "VCC" H 3700 950 30  0000 C CNN
F 2 "" H 3700 850 60  0000 C CNN
F 3 "" H 3700 850 60  0000 C CNN
	1    3700 850 
	1    0    0    -1  
$EndComp
Wire Wire Line
	3700 850  3700 1300
Connection ~ 3700 1000
Wire Wire Line
	4350 750  4750 750 
Wire Wire Line
	4350 1550 4750 1550
Text Label 4450 750  0    60   ~ 0
Switch_1_out
Text Label 4450 1550 0    60   ~ 0
Switch_2_out
Wire Wire Line
	1900 750  1900 1550
Wire Wire Line
	2000 1450 1700 1450
Text Label 1850 1450 2    60   ~ 0
Switch_1_out
Text Label 1850 1050 2    60   ~ 0
Switch_2_out
Wire Wire Line
	2000 1050 1700 1050
Wire Wire Line
	2000 1250 1900 1250
Connection ~ 1900 1250
$EndSCHEMATC
