(export (version D)
  (design
    (source D:\kicad\nandboard\nandboard.sch)
    (date "25/07/2014 17:53:21")
    (tool "eeschema (2013-07-07 BZR 4022)-stable"))
  (components
    (comp (ref U3)
      (value 74HC00)
      (libsource (lib 74xx) (part 74HC00))
      (sheetpath (names /) (tstamps /))
      (tstamp 5210EBAD))
    (comp (ref P1)
      (value NAND_IN_A)
      (libsource (lib conn) (part CONN_8X2))
      (sheetpath (names /) (tstamps /))
      (tstamp 5210ECBB))
    (comp (ref D1)
      (value LED)
      (libsource (lib device) (part LED))
      (sheetpath (names /) (tstamps /))
      (tstamp 5210ED94))
    (comp (ref D2)
      (value LED)
      (libsource (lib device) (part LED))
      (sheetpath (names /) (tstamps /))
      (tstamp 5210EDAD))
    (comp (ref D3)
      (value LED)
      (libsource (lib device) (part LED))
      (sheetpath (names /) (tstamps /))
      (tstamp 5210EDBC))
    (comp (ref D4)
      (value LED)
      (libsource (lib device) (part LED))
      (sheetpath (names /) (tstamps /))
      (tstamp 5210EDCB))
    (comp (ref U4)
      (value 74HC00)
      (libsource (lib 74xx) (part 74HC00))
      (sheetpath (names /) (tstamps /))
      (tstamp 5211021E))
    (comp (ref P2)
      (value NAND_IN_B)
      (libsource (lib conn) (part CONN_8X2))
      (sheetpath (names /) (tstamps /))
      (tstamp 52110236))
    (comp (ref D5)
      (value LED)
      (libsource (lib device) (part LED))
      (sheetpath (names /) (tstamps /))
      (tstamp 52110242))
    (comp (ref D6)
      (value LED)
      (libsource (lib device) (part LED))
      (sheetpath (names /) (tstamps /))
      (tstamp 52110248))
    (comp (ref D7)
      (value LED)
      (libsource (lib device) (part LED))
      (sheetpath (names /) (tstamps /))
      (tstamp 5211024E))
    (comp (ref D8)
      (value LED)
      (libsource (lib device) (part LED))
      (sheetpath (names /) (tstamps /))
      (tstamp 52110254))
    (comp (ref U2)
      (value 10k)
      (libsource (lib yc248) (part YC248))
      (sheetpath (names /) (tstamps /))
      (tstamp 5211025A))
    (comp (ref P5)
      (value NAND_OUT_A)
      (libsource (lib conn) (part CONN_8X2))
      (sheetpath (names /) (tstamps /))
      (tstamp 5211097B))
    (comp (ref U8)
      (value 74HC00)
      (libsource (lib 74xx) (part 74HC00))
      (sheetpath (names /) (tstamps /))
      (tstamp 52110683))
    (comp (ref P9)
      (value NAND_IN_C)
      (libsource (lib conn) (part CONN_8X2))
      (sheetpath (names /) (tstamps /))
      (tstamp 5211069B))
    (comp (ref D9)
      (value LED)
      (libsource (lib device) (part LED))
      (sheetpath (names /) (tstamps /))
      (tstamp 521106A1))
    (comp (ref D10)
      (value LED)
      (libsource (lib device) (part LED))
      (sheetpath (names /) (tstamps /))
      (tstamp 521106A7))
    (comp (ref D11)
      (value LED)
      (libsource (lib device) (part LED))
      (sheetpath (names /) (tstamps /))
      (tstamp 521106AD))
    (comp (ref D12)
      (value LED)
      (libsource (lib device) (part LED))
      (sheetpath (names /) (tstamps /))
      (tstamp 521106B3))
    (comp (ref U6)
      (value 10k)
      (libsource (lib yc248) (part YC248))
      (sheetpath (names /) (tstamps /))
      (tstamp 521106B9))
    (comp (ref U9)
      (value 74HC00)
      (libsource (lib 74xx) (part 74HC00))
      (sheetpath (names /) (tstamps /))
      (tstamp 521106C5))
    (comp (ref P10)
      (value NAND_IN_D)
      (libsource (lib conn) (part CONN_8X2))
      (sheetpath (names /) (tstamps /))
      (tstamp 521106DD))
    (comp (ref D13)
      (value LED)
      (libsource (lib device) (part LED))
      (sheetpath (names /) (tstamps /))
      (tstamp 521106E9))
    (comp (ref D14)
      (value LED)
      (libsource (lib device) (part LED))
      (sheetpath (names /) (tstamps /))
      (tstamp 521106EF))
    (comp (ref D15)
      (value LED)
      (libsource (lib device) (part LED))
      (sheetpath (names /) (tstamps /))
      (tstamp 521106F5))
    (comp (ref D16)
      (value LED)
      (libsource (lib device) (part LED))
      (sheetpath (names /) (tstamps /))
      (tstamp 521106FB))
    (comp (ref U7)
      (value 10k)
      (libsource (lib yc248) (part YC248))
      (sheetpath (names /) (tstamps /))
      (tstamp 52110701))
    (comp (ref P7)
      (value MICRO-B-USB)
      (libsource (lib connectors) (part MICRO-B-USB))
      (sheetpath (names /) (tstamps /))
      (tstamp 52110A14))
    (comp (ref C2)
      (value 10nF)
      (libsource (lib device) (part C))
      (sheetpath (names /) (tstamps /))
      (tstamp 52111582))
    (comp (ref C1)
      (value 1uF)
      (libsource (lib device) (part C))
      (sheetpath (names /) (tstamps /))
      (tstamp 52111591))
    (comp (ref P8)
      (value Power)
      (libsource (lib conn) (part CONN_2))
      (sheetpath (names /) (tstamps /))
      (tstamp 52110FB5))
    (comp (ref P3)
      (value "Logic 1")
      (libsource (lib conn) (part CONN_8))
      (sheetpath (names /) (tstamps /))
      (tstamp 52111FB7))
    (comp (ref P4)
      (value "Logic 1")
      (libsource (lib conn) (part CONN_8))
      (sheetpath (names /) (tstamps /))
      (tstamp 52112F09))
    (comp (ref P11)
      (value "Logic 1")
      (libsource (lib conn) (part CONN_8))
      (sheetpath (names /) (tstamps /))
      (tstamp 52112F25))
    (comp (ref P12)
      (value "Logic 1")
      (libsource (lib conn) (part CONN_8))
      (sheetpath (names /) (tstamps /))
      (tstamp 52112F41))
    (comp (ref U5)
      (value 560R)
      (libsource (lib yc124) (part YC124))
      (sheetpath (names /) (tstamps /))
      (tstamp 52112438))
    (comp (ref U10)
      (value 560R)
      (libsource (lib yc124) (part YC124))
      (sheetpath (names /) (tstamps /))
      (tstamp 52112447))
    (comp (ref U11)
      (value 560R)
      (libsource (lib yc124) (part YC124))
      (sheetpath (names /) (tstamps /))
      (tstamp 5211248A))
    (comp (ref U12)
      (value 560R)
      (libsource (lib yc124) (part YC124))
      (sheetpath (names /) (tstamps /))
      (tstamp 521124A3))
    (comp (ref U1)
      (value 10k)
      (libsource (lib yc248) (part YC248))
      (sheetpath (names /) (tstamps /))
      (tstamp 521127EA))
    (comp (ref U13)
      (value 1k)
      (libsource (lib yc124) (part YC124))
      (sheetpath (names /) (tstamps /))
      (tstamp 5211E29E))
    (comp (ref U14)
      (value 1k)
      (libsource (lib yc124) (part YC124))
      (sheetpath (names /) (tstamps /))
      (tstamp 52120048))
    (comp (ref U15)
      (value 1k)
      (libsource (lib yc124) (part YC124))
      (sheetpath (names /) (tstamps /))
      (tstamp 52120A0D))
    (comp (ref U16)
      (value 1k)
      (libsource (lib yc124) (part YC124))
      (sheetpath (names /) (tstamps /))
      (tstamp 521213F4))
    (comp (ref P6)
      (value NAND_OUT_B)
      (libsource (lib conn) (part CONN_8X2))
      (sheetpath (names /) (tstamps /))
      (tstamp 5212A456))
    (comp (ref P13)
      (value NAND_OUT_C)
      (libsource (lib conn) (part CONN_8X2))
      (sheetpath (names /) (tstamps /))
      (tstamp 5212A6DB))
    (comp (ref P14)
      (value NAND_OUT_D)
      (libsource (lib conn) (part CONN_8X2))
      (sheetpath (names /) (tstamps /))
      (tstamp 5212A72F))
    (comp (ref H1)
      (value MOUNTING_HOLE)
      (libsource (lib mounting_hole) (part MOUNTING_HOLE))
      (sheetpath (names /) (tstamps /))
      (tstamp 521323DA))
    (comp (ref H2)
      (value MOUNTING_HOLE)
      (libsource (lib mounting_hole) (part MOUNTING_HOLE))
      (sheetpath (names /) (tstamps /))
      (tstamp 521323E9))
    (comp (ref H3)
      (value MOUNTING_HOLE)
      (libsource (lib mounting_hole) (part MOUNTING_HOLE))
      (sheetpath (names /) (tstamps /))
      (tstamp 521323F8))
    (comp (ref H4)
      (value MOUNTING_HOLE)
      (libsource (lib mounting_hole) (part MOUNTING_HOLE))
      (sheetpath (names /) (tstamps /))
      (tstamp 52132407))
    (comp (ref SW1)
      (value "Switch 1")
      (libsource (lib device) (part SW_PUSH))
      (sheetpath (names /) (tstamps /))
      (tstamp 53D2839B))
    (comp (ref SW2)
      (value "Switch 2")
      (libsource (lib device) (part SW_PUSH))
      (sheetpath (names /) (tstamps /))
      (tstamp 53D283AA))
    (comp (ref D17)
      (value LED)
      (libsource (lib device) (part LED))
      (sheetpath (names /) (tstamps /))
      (tstamp 53D28446))
    (comp (ref D18)
      (value LED)
      (libsource (lib device) (part LED))
      (sheetpath (names /) (tstamps /))
      (tstamp 53D28451))
    (comp (ref U17)
      (value 560R)
      (libsource (lib yc124) (part YC124))
      (sheetpath (names /) (tstamps /))
      (tstamp 53D289A2)))
  (libparts
    (libpart (lib device) (part C)
      (description "Condensateur non polarise")
      (footprints
        (fp SM*)
        (fp C?)
        (fp C1-1))
      (fields
        (field (name Reference) C)
        (field (name Value) C)
        (field (name Footprint) ~)
        (field (name Datasheet) ~))
      (pins
        (pin (num 1) (name ~) (type passive))
        (pin (num 2) (name ~) (type passive))))
    (libpart (lib device) (part LED)
      (footprints
        (fp LED-3MM)
        (fp LED-5MM)
        (fp LED-10MM)
        (fp LED-0603)
        (fp LED-0805)
        (fp LED-1206)
        (fp LEDV))
      (fields
        (field (name Reference) D)
        (field (name Value) LED)
        (field (name Footprint) ~)
        (field (name Datasheet) ~))
      (pins
        (pin (num 1) (name A) (type passive))
        (pin (num 2) (name K) (type passive))))
    (libpart (lib device) (part SW_PUSH)
      (description "Push Button")
      (fields
        (field (name Reference) SW)
        (field (name Value) SW_PUSH)
        (field (name Footprint) ~)
        (field (name Datasheet) ~))
      (pins
        (pin (num 1) (name 1) (type passive))
        (pin (num 2) (name 2) (type passive))))
    (libpart (lib conn) (part CONN_2)
      (description "Symbole general de connecteur")
      (fields
        (field (name Reference) P)
        (field (name Value) CONN_2))
      (pins
        (pin (num 1) (name P1) (type passive))
        (pin (num 2) (name PM) (type passive))))
    (libpart (lib conn) (part CONN_8)
      (description "Symbole general de connecteur")
      (fields
        (field (name Reference) P)
        (field (name Value) CONN_8))
      (pins
        (pin (num 1) (name P1) (type passive))
        (pin (num 2) (name P2) (type passive))
        (pin (num 3) (name P3) (type passive))
        (pin (num 4) (name P4) (type passive))
        (pin (num 5) (name P5) (type passive))
        (pin (num 6) (name P6) (type passive))
        (pin (num 7) (name P7) (type passive))
        (pin (num 8) (name P8) (type passive))))
    (libpart (lib conn) (part CONN_8X2)
      (description "ymbole general de connecteur")
      (fields
        (field (name Reference) P)
        (field (name Value) CONN_8X2))
      (pins
        (pin (num 1) (name ~) (type passive))
        (pin (num 2) (name ~) (type passive))
        (pin (num 3) (name ~) (type passive))
        (pin (num 4) (name ~) (type passive))
        (pin (num 5) (name ~) (type passive))
        (pin (num 6) (name ~) (type passive))
        (pin (num 7) (name ~) (type passive))
        (pin (num 8) (name ~) (type passive))
        (pin (num 9) (name ~) (type passive))
        (pin (num 10) (name ~) (type passive))
        (pin (num 11) (name ~) (type passive))
        (pin (num 12) (name ~) (type passive))
        (pin (num 13) (name ~) (type passive))
        (pin (num 14) (name ~) (type passive))
        (pin (num 15) (name ~) (type passive))
        (pin (num 16) (name ~) (type passive))))
    (libpart (lib 74xx) (part 74LS00)
      (description "Quad nand2")
      (footprints
        (fp 14DIP300*)
        (fp SO14*))
      (fields
        (field (name Reference) U)
        (field (name Value) 74LS00)
        (field (name Footprint) ~)
        (field (name Datasheet) ~))
      (pins
        (pin (num 1) (name ~) (type input))
        (pin (num 2) (name ~) (type input))
        (pin (num 3) (name ~) (type output))
        (pin (num 4) (name ~) (type input))
        (pin (num 5) (name ~) (type input))
        (pin (num 6) (name ~) (type output))
        (pin (num 7) (name GND) (type power_in))
        (pin (num 8) (name ~) (type output))
        (pin (num 9) (name ~) (type input))
        (pin (num 10) (name ~) (type input))
        (pin (num 11) (name ~) (type output))
        (pin (num 12) (name ~) (type input))
        (pin (num 13) (name ~) (type input))
        (pin (num 14) (name VCC) (type power_in))))
    (libpart (lib connectors) (part MICRO-B-USB)
      (fields
        (field (name Reference) P)
        (field (name Value) MICRO-B-USB))
      (pins
        (pin (num 1) (name VCC) (type power_out))
        (pin (num 2) (name D-) (type BiDi))
        (pin (num 3) (name D+) (type BiDi))
        (pin (num 4) (name ID) (type BiDi))
        (pin (num 5) (name GND) (type power_in))))
    (libpart (lib mounting_hole) (part MOUNTING_HOLE)
      (fields
        (field (name Reference) H)
        (field (name Value) MOUNTING_HOLE)
        (field (name Footprint) ~)
        (field (name Datasheet) ~)))
    (libpart (lib yc124) (part YC124)
      (fields
        (field (name Reference) U)
        (field (name Value) YC124))
      (pins
        (pin (num 1) (name 1) (type input))
        (pin (num 2) (name 2) (type input))
        (pin (num 3) (name 3) (type input))
        (pin (num 4) (name 4) (type input))
        (pin (num 5) (name 5) (type input))
        (pin (num 6) (name 6) (type input))
        (pin (num 7) (name 7) (type input))
        (pin (num 8) (name 8) (type input))))
    (libpart (lib yc248) (part YC248)
      (footprints
        (fp SM0616)
        (fp SM1640))
      (fields
        (field (name Reference) U)
        (field (name Value) YC248)
        (field (name Footprint) ~)
        (field (name Datasheet) ~))
      (pins
        (pin (num 1) (name 1) (type input))
        (pin (num 2) (name 2) (type input))
        (pin (num 3) (name 3) (type input))
        (pin (num 4) (name 4) (type input))
        (pin (num 5) (name 5) (type input))
        (pin (num 6) (name 6) (type input))
        (pin (num 7) (name 7) (type input))
        (pin (num 8) (name 8) (type input))
        (pin (num 9) (name 9) (type input))
        (pin (num 10) (name 10) (type input))
        (pin (num 11) (name 11) (type input))
        (pin (num 12) (name 12) (type input))
        (pin (num 13) (name 13) (type input))
        (pin (num 14) (name 14) (type input))
        (pin (num 15) (name 15) (type input))
        (pin (num 16) (name 16) (type input)))))
  (libraries
    (library (logical device)
      (uri "C:\\Program Files (x86)\\KiCad\\share\\library\\device.lib"))
    (library (logical conn)
      (uri "C:\\Program Files (x86)\\KiCad\\share\\library\\conn.lib"))
    (library (logical 74xx)
      (uri "C:\\Program Files (x86)\\KiCad\\share\\library\\74xx.lib"))
    (library (logical connectors)
      (uri libs\connectors.lib))
    (library (logical mounting_hole)
      (uri libs\mounting_hole.lib))
    (library (logical yc124)
      (uri libs\yc124.lib))
    (library (logical yc248)
      (uri libs\yc248.lib)))
  (nets
    (net (code 1) (name "")
      (node (ref U15) (pin 4))
      (node (ref D9) (pin 1))
      (node (ref U8) (pin 3)))
    (net (code 2) (name "")
      (node (ref P9) (pin 2))
      (node (ref U8) (pin 1))
      (node (ref P9) (pin 1))
      (node (ref U6) (pin 1)))
    (net (code 3) (name "")
      (node (ref U8) (pin 6))
      (node (ref D10) (pin 1))
      (node (ref U15) (pin 3)))
    (net (code 4) (name "")
      (node (ref U15) (pin 2))
      (node (ref U8) (pin 8))
      (node (ref D11) (pin 1)))
    (net (code 5) (name "")
      (node (ref U8) (pin 11))
      (node (ref D12) (pin 1))
      (node (ref U15) (pin 1)))
    (net (code 6) (name "")
      (node (ref U2) (pin 1))
      (node (ref P2) (pin 1))
      (node (ref P2) (pin 2))
      (node (ref U4) (pin 1)))
    (net (code 7) (name "")
      (node (ref D6) (pin 1))
      (node (ref U4) (pin 6))
      (node (ref U14) (pin 3)))
    (net (code 8) (name "")
      (node (ref D7) (pin 1))
      (node (ref U4) (pin 8))
      (node (ref U14) (pin 2)))
    (net (code 9) (name "")
      (node (ref U4) (pin 11))
      (node (ref U14) (pin 1))
      (node (ref D8) (pin 1)))
    (net (code 10) (name "")
      (node (ref D6) (pin 2))
      (node (ref U10) (pin 2)))
    (net (code 11) (name "")
      (node (ref D7) (pin 2))
      (node (ref U10) (pin 3)))
    (net (code 12) (name "")
      (node (ref U10) (pin 4))
      (node (ref D8) (pin 2)))
    (net (code 13) (name "")
      (node (ref P2) (pin 15))
      (node (ref P2) (pin 16))
      (node (ref U4) (pin 13))
      (node (ref U2) (pin 8)))
    (net (code 14) (name "")
      (node (ref D3) (pin 2))
      (node (ref U5) (pin 3)))
    (net (code 15) (name "")
      (node (ref U5) (pin 2))
      (node (ref D2) (pin 2)))
    (net (code 16) (name "")
      (node (ref D1) (pin 2))
      (node (ref U5) (pin 1)))
    (net (code 17) (name "")
      (node (ref U10) (pin 1))
      (node (ref D5) (pin 2)))
    (net (code 18) (name "")
      (node (ref U12) (pin 4))
      (node (ref D16) (pin 2)))
    (net (code 19) (name "")
      (node (ref U12) (pin 1))
      (node (ref D13) (pin 2)))
    (net (code 20) (name "")
      (node (ref U12) (pin 2))
      (node (ref D14) (pin 2)))
    (net (code 21) (name "")
      (node (ref U12) (pin 3))
      (node (ref D15) (pin 2)))
    (net (code 22) (name "")
      (node (ref D13) (pin 1))
      (node (ref U9) (pin 3))
      (node (ref U16) (pin 4)))
    (net (code 23) (name "")
      (node (ref D12) (pin 2))
      (node (ref U11) (pin 4)))
    (net (code 24) (name "")
      (node (ref D11) (pin 2))
      (node (ref U11) (pin 3)))
    (net (code 25) (name "")
      (node (ref D10) (pin 2))
      (node (ref U11) (pin 2)))
    (net (code 26) (name "")
      (node (ref D9) (pin 2))
      (node (ref U11) (pin 1)))
    (net (code 27) (name "")
      (node (ref U7) (pin 8))
      (node (ref U9) (pin 13))
      (node (ref P10) (pin 16))
      (node (ref P10) (pin 15)))
    (net (code 28) (name "")
      (node (ref U9) (pin 6))
      (node (ref D14) (pin 1))
      (node (ref U16) (pin 3)))
    (net (code 29) (name "")
      (node (ref D15) (pin 1))
      (node (ref U9) (pin 8))
      (node (ref U16) (pin 2)))
    (net (code 30) (name "")
      (node (ref U7) (pin 1))
      (node (ref U9) (pin 1))
      (node (ref P10) (pin 1))
      (node (ref P10) (pin 2)))
    (net (code 31) (name "")
      (node (ref U9) (pin 11))
      (node (ref U16) (pin 1))
      (node (ref D16) (pin 1)))
    (net (code 32) (name "")
      (node (ref U3) (pin 1))
      (node (ref P1) (pin 1))
      (node (ref P1) (pin 2))
      (node (ref U1) (pin 1)))
    (net (code 33) (name "")
      (node (ref P14) (pin 5))
      (node (ref P14) (pin 6))
      (node (ref P14) (pin 7))
      (node (ref U16) (pin 6))
      (node (ref P14) (pin 8)))
    (net (code 34) (name "")
      (node (ref P14) (pin 10))
      (node (ref P14) (pin 12))
      (node (ref P14) (pin 11))
      (node (ref U16) (pin 7))
      (node (ref P14) (pin 9)))
    (net (code 35) (name "")
      (node (ref D17) (pin 1))
      (node (ref U17) (pin 5)))
    (net (code 36) (name "")
      (node (ref D18) (pin 1))
      (node (ref U17) (pin 8)))
    (net (code 37) (name /Switch_1_out)
      (node (ref U17) (pin 3))
      (node (ref U17) (pin 4))
      (node (ref SW1) (pin 2))
      (node (ref P3) (pin 7)))
    (net (code 38) (name /Switch_2_out)
      (node (ref SW2) (pin 2))
      (node (ref U17) (pin 1))
      (node (ref U17) (pin 2))
      (node (ref P3) (pin 3)))
    (net (code 39) (name "")
      (node (ref P13) (pin 6))
      (node (ref U15) (pin 6))
      (node (ref P13) (pin 8))
      (node (ref P13) (pin 7))
      (node (ref P13) (pin 5)))
    (net (code 40) (name "")
      (node (ref U13) (pin 4))
      (node (ref U3) (pin 3))
      (node (ref D1) (pin 1)))
    (net (code 41) (name "")
      (node (ref U13) (pin 3))
      (node (ref U3) (pin 6))
      (node (ref D2) (pin 1)))
    (net (code 42) (name "")
      (node (ref D3) (pin 1))
      (node (ref U13) (pin 2))
      (node (ref U3) (pin 8)))
    (net (code 43) (name "")
      (node (ref U13) (pin 1))
      (node (ref U3) (pin 11))
      (node (ref D4) (pin 1)))
    (net (code 44) (name "")
      (node (ref U1) (pin 8))
      (node (ref P1) (pin 15))
      (node (ref P1) (pin 16))
      (node (ref U3) (pin 13)))
    (net (code 45) (name "")
      (node (ref U15) (pin 7))
      (node (ref P13) (pin 12))
      (node (ref P13) (pin 11))
      (node (ref P13) (pin 10))
      (node (ref P13) (pin 9)))
    (net (code 46) (name "")
      (node (ref P6) (pin 7))
      (node (ref P6) (pin 8))
      (node (ref P6) (pin 6))
      (node (ref P6) (pin 5))
      (node (ref U14) (pin 6)))
    (net (code 47) (name "")
      (node (ref P6) (pin 9))
      (node (ref P6) (pin 11))
      (node (ref U14) (pin 7))
      (node (ref P6) (pin 10))
      (node (ref P6) (pin 12)))
    (net (code 48) (name "")
      (node (ref U6) (pin 7))
      (node (ref P9) (pin 14))
      (node (ref P9) (pin 13))
      (node (ref U8) (pin 12)))
    (net (code 49) (name "")
      (node (ref U6) (pin 6))
      (node (ref U8) (pin 10))
      (node (ref P9) (pin 12))
      (node (ref P9) (pin 11)))
    (net (code 50) (name "")
      (node (ref U8) (pin 9))
      (node (ref U6) (pin 5))
      (node (ref P9) (pin 9))
      (node (ref P9) (pin 10)))
    (net (code 51) (name "")
      (node (ref P9) (pin 7))
      (node (ref P9) (pin 8))
      (node (ref U8) (pin 5))
      (node (ref U6) (pin 4)))
    (net (code 52) (name "")
      (node (ref P9) (pin 5))
      (node (ref P9) (pin 6))
      (node (ref U8) (pin 4))
      (node (ref U6) (pin 3)))
    (net (code 53) (name "")
      (node (ref P9) (pin 3))
      (node (ref P9) (pin 4))
      (node (ref U6) (pin 2))
      (node (ref U8) (pin 2)))
    (net (code 54) (name "")
      (node (ref P9) (pin 16))
      (node (ref U8) (pin 13))
      (node (ref P9) (pin 15))
      (node (ref U6) (pin 8)))
    (net (code 55) (name "")
      (node (ref P7) (pin 2)))
    (net (code 56) (name "")
      (node (ref P7) (pin 3)))
    (net (code 57) (name "")
      (node (ref P7) (pin 4)))
    (net (code 58) (name "")
      (node (ref U9) (pin 9))
      (node (ref U7) (pin 5))
      (node (ref P10) (pin 9))
      (node (ref P10) (pin 10)))
    (net (code 59) (name "")
      (node (ref U9) (pin 12))
      (node (ref P10) (pin 13))
      (node (ref U7) (pin 7))
      (node (ref P10) (pin 14)))
    (net (code 60) (name "")
      (node (ref U7) (pin 6))
      (node (ref P10) (pin 12))
      (node (ref U9) (pin 10))
      (node (ref P10) (pin 11)))
    (net (code 61) (name "")
      (node (ref U7) (pin 4))
      (node (ref U9) (pin 5))
      (node (ref P10) (pin 8))
      (node (ref P10) (pin 7)))
    (net (code 62) (name "")
      (node (ref U9) (pin 4))
      (node (ref U7) (pin 3))
      (node (ref P10) (pin 5))
      (node (ref P10) (pin 6)))
    (net (code 63) (name "")
      (node (ref P10) (pin 4))
      (node (ref P10) (pin 3))
      (node (ref U9) (pin 2))
      (node (ref U7) (pin 2)))
    (net (code 64) (name "")
      (node (ref P1) (pin 13))
      (node (ref P1) (pin 14))
      (node (ref U3) (pin 12))
      (node (ref U1) (pin 7)))
    (net (code 65) (name "")
      (node (ref P1) (pin 12))
      (node (ref U3) (pin 10))
      (node (ref P1) (pin 11))
      (node (ref U1) (pin 6)))
    (net (code 66) (name "")
      (node (ref U3) (pin 9))
      (node (ref P1) (pin 9))
      (node (ref P1) (pin 10))
      (node (ref U1) (pin 5)))
    (net (code 67) (name "")
      (node (ref U3) (pin 5))
      (node (ref U1) (pin 4))
      (node (ref P1) (pin 7))
      (node (ref P1) (pin 8)))
    (net (code 68) (name "")
      (node (ref P1) (pin 5))
      (node (ref P1) (pin 6))
      (node (ref U1) (pin 3))
      (node (ref U3) (pin 4)))
    (net (code 69) (name "")
      (node (ref U1) (pin 2))
      (node (ref U3) (pin 2))
      (node (ref P1) (pin 4))
      (node (ref P1) (pin 3)))
    (net (code 70) (name "")
      (node (ref P5) (pin 4))
      (node (ref P5) (pin 3))
      (node (ref P5) (pin 2))
      (node (ref P5) (pin 1))
      (node (ref U13) (pin 5)))
    (net (code 71) (name "")
      (node (ref P5) (pin 15))
      (node (ref U13) (pin 8))
      (node (ref P5) (pin 13))
      (node (ref P5) (pin 16))
      (node (ref P5) (pin 14)))
    (net (code 72) (name "")
      (node (ref P5) (pin 10))
      (node (ref P5) (pin 12))
      (node (ref P5) (pin 9))
      (node (ref P5) (pin 11))
      (node (ref U13) (pin 7)))
    (net (code 73) (name "")
      (node (ref P5) (pin 8))
      (node (ref P5) (pin 7))
      (node (ref P5) (pin 5))
      (node (ref P5) (pin 6))
      (node (ref U13) (pin 6)))
    (net (code 74) (name "")
      (node (ref P2) (pin 9))
      (node (ref P2) (pin 10))
      (node (ref U4) (pin 9))
      (node (ref U2) (pin 5)))
    (net (code 75) (name "")
      (node (ref U4) (pin 5))
      (node (ref U2) (pin 4))
      (node (ref P2) (pin 8))
      (node (ref P2) (pin 7)))
    (net (code 76) (name "")
      (node (ref U4) (pin 4))
      (node (ref U2) (pin 3))
      (node (ref P2) (pin 6))
      (node (ref P2) (pin 5)))
    (net (code 77) (name "")
      (node (ref P2) (pin 3))
      (node (ref P2) (pin 4))
      (node (ref U2) (pin 2))
      (node (ref U4) (pin 2)))
    (net (code 78) (name "")
      (node (ref P2) (pin 11))
      (node (ref P2) (pin 12))
      (node (ref U2) (pin 6))
      (node (ref U4) (pin 10)))
    (net (code 79) (name "")
      (node (ref U2) (pin 7))
      (node (ref P2) (pin 14))
      (node (ref P2) (pin 13))
      (node (ref U4) (pin 12)))
    (net (code 80) (name "")
      (node (ref U14) (pin 4))
      (node (ref D5) (pin 1))
      (node (ref U4) (pin 3)))
    (net (code 81) (name "")
      (node (ref U5) (pin 4))
      (node (ref D4) (pin 2)))
    (net (code 82) (name GND)
      (node (ref U8) (pin 7))
      (node (ref C2) (pin 2))
      (node (ref C1) (pin 2))
      (node (ref P8) (pin 2))
      (node (ref U10) (pin 5))
      (node (ref U10) (pin 6))
      (node (ref U10) (pin 7))
      (node (ref U10) (pin 8))
      (node (ref U1) (pin 9))
      (node (ref U1) (pin 14))
      (node (ref U1) (pin 15))
      (node (ref U1) (pin 16))
      (node (ref U12) (pin 5))
      (node (ref U12) (pin 6))
      (node (ref U12) (pin 7))
      (node (ref U12) (pin 8))
      (node (ref U1) (pin 12))
      (node (ref U1) (pin 10))
      (node (ref U1) (pin 11))
      (node (ref D17) (pin 2))
      (node (ref D18) (pin 2))
      (node (ref U11) (pin 5))
      (node (ref U11) (pin 6))
      (node (ref U11) (pin 7))
      (node (ref U11) (pin 8))
      (node (ref U5) (pin 8))
      (node (ref U5) (pin 5))
      (node (ref U5) (pin 6))
      (node (ref U5) (pin 7))
      (node (ref U1) (pin 13))
      (node (ref U6) (pin 11))
      (node (ref U6) (pin 12))
      (node (ref U6) (pin 13))
      (node (ref U6) (pin 14))
      (node (ref U6) (pin 15))
      (node (ref U6) (pin 16))
      (node (ref U2) (pin 9))
      (node (ref U7) (pin 9))
      (node (ref U7) (pin 14))
      (node (ref U7) (pin 15))
      (node (ref U7) (pin 16))
      (node (ref P7) (pin 5))
      (node (ref U7) (pin 13))
      (node (ref U6) (pin 10))
      (node (ref U7) (pin 10))
      (node (ref U7) (pin 11))
      (node (ref U7) (pin 12))
      (node (ref U17) (pin 7))
      (node (ref U17) (pin 6))
      (node (ref U6) (pin 9))
      (node (ref U9) (pin 7))
      (node (ref U2) (pin 15))
      (node (ref U2) (pin 13))
      (node (ref U2) (pin 16))
      (node (ref U2) (pin 14))
      (node (ref U2) (pin 10))
      (node (ref U3) (pin 7))
      (node (ref U2) (pin 11))
      (node (ref U4) (pin 7))
      (node (ref U2) (pin 12)))
    (net (code 83) (name "")
      (node (ref U16) (pin 5))
      (node (ref P14) (pin 4))
      (node (ref P14) (pin 1))
      (node (ref P14) (pin 2))
      (node (ref P14) (pin 3)))
    (net (code 84) (name "")
      (node (ref U15) (pin 8))
      (node (ref P13) (pin 16))
      (node (ref P13) (pin 15))
      (node (ref P13) (pin 14))
      (node (ref P13) (pin 13)))
    (net (code 85) (name VCC)
      (node (ref P4) (pin 1))
      (node (ref P3) (pin 8))
      (node (ref P3) (pin 4))
      (node (ref P3) (pin 5))
      (node (ref P3) (pin 6))
      (node (ref P3) (pin 2))
      (node (ref P12) (pin 1))
      (node (ref P12) (pin 2))
      (node (ref P12) (pin 3))
      (node (ref P12) (pin 4))
      (node (ref P12) (pin 5))
      (node (ref P12) (pin 6))
      (node (ref P12) (pin 7))
      (node (ref P4) (pin 2))
      (node (ref P4) (pin 3))
      (node (ref P11) (pin 3))
      (node (ref P8) (pin 1))
      (node (ref C1) (pin 1))
      (node (ref C2) (pin 1))
      (node (ref P11) (pin 8))
      (node (ref P11) (pin 7))
      (node (ref P11) (pin 6))
      (node (ref P11) (pin 5))
      (node (ref P11) (pin 4))
      (node (ref P3) (pin 1))
      (node (ref P11) (pin 2))
      (node (ref P11) (pin 1))
      (node (ref P4) (pin 8))
      (node (ref P4) (pin 7))
      (node (ref P4) (pin 6))
      (node (ref P4) (pin 5))
      (node (ref P4) (pin 4))
      (node (ref SW1) (pin 1))
      (node (ref SW2) (pin 1))
      (node (ref U9) (pin 14))
      (node (ref P7) (pin 1))
      (node (ref P12) (pin 8))
      (node (ref U3) (pin 14))
      (node (ref U4) (pin 14))
      (node (ref U8) (pin 14)))
    (net (code 86) (name "")
      (node (ref P14) (pin 15))
      (node (ref P14) (pin 16))
      (node (ref P14) (pin 14))
      (node (ref P14) (pin 13))
      (node (ref U16) (pin 8)))
    (net (code 87) (name "")
      (node (ref P13) (pin 3))
      (node (ref U15) (pin 5))
      (node (ref P13) (pin 2))
      (node (ref P13) (pin 1))
      (node (ref P13) (pin 4)))
    (net (code 88) (name "")
      (node (ref P6) (pin 13))
      (node (ref P6) (pin 14))
      (node (ref P6) (pin 15))
      (node (ref P6) (pin 16))
      (node (ref U14) (pin 8)))
    (net (code 89) (name "")
      (node (ref P6) (pin 1))
      (node (ref P6) (pin 4))
      (node (ref P6) (pin 3))
      (node (ref P6) (pin 2))
      (node (ref U14) (pin 5)))))