G04 (created by PCBNEW (2013-07-07 BZR 4022)-stable) date 28/07/2014 10:42:27*
%MOIN*%
G04 Gerber Fmt 3.4, Leading zero omitted, Abs format*
%FSLAX34Y34*%
G01*
G70*
G90*
G04 APERTURE LIST*
%ADD10C,0.00590551*%
%ADD11C,0.011811*%
%ADD12C,0.00787402*%
G04 APERTURE END LIST*
G54D10*
G54D11*
X28756Y-19666D02*
X28812Y-19663D01*
X28870Y-19688D01*
X28899Y-19714D01*
X28930Y-19769D01*
X28965Y-19880D01*
X28973Y-20020D01*
X28951Y-20134D01*
X28926Y-20192D01*
X28899Y-20221D01*
X28845Y-20252D01*
X28789Y-20256D01*
X28731Y-20231D01*
X28701Y-20204D01*
X28670Y-20150D01*
X28636Y-20039D01*
X28628Y-19898D01*
X28650Y-19785D01*
X28675Y-19727D01*
X28701Y-19697D01*
X28756Y-19666D01*
X29235Y-20174D02*
X29264Y-20201D01*
X29238Y-20230D01*
X29208Y-20204D01*
X29235Y-20174D01*
X29238Y-20230D01*
X29430Y-19628D02*
X29795Y-19608D01*
X29611Y-19843D01*
X29695Y-19839D01*
X29753Y-19864D01*
X29782Y-19890D01*
X29813Y-19945D01*
X29821Y-20085D01*
X29796Y-20143D01*
X29770Y-20173D01*
X29715Y-20204D01*
X29547Y-20213D01*
X29489Y-20188D01*
X29459Y-20162D01*
X30328Y-19578D02*
X30047Y-19594D01*
X30035Y-19876D01*
X30061Y-19846D01*
X30116Y-19815D01*
X30256Y-19807D01*
X30314Y-19832D01*
X30344Y-19859D01*
X30375Y-19913D01*
X30383Y-20054D01*
X30358Y-20112D01*
X30331Y-20141D01*
X30277Y-20172D01*
X30136Y-20180D01*
X30079Y-20155D01*
X30049Y-20129D01*
X30951Y-20135D02*
X30614Y-20154D01*
X30782Y-20144D02*
X30749Y-19555D01*
X30698Y-19642D01*
X30645Y-19701D01*
X30590Y-19732D01*
X31653Y-20095D02*
X31631Y-19702D01*
X31634Y-19759D02*
X31660Y-19729D01*
X31715Y-19698D01*
X31799Y-19693D01*
X31857Y-19718D01*
X31888Y-19772D01*
X31905Y-20081D01*
X31888Y-19772D02*
X31913Y-19715D01*
X31968Y-19684D01*
X32052Y-19679D01*
X32109Y-19704D01*
X32141Y-19758D01*
X32158Y-20067D01*
X32439Y-20052D02*
X32417Y-19658D01*
X32420Y-19715D02*
X32446Y-19685D01*
X32501Y-19654D01*
X32585Y-19649D01*
X32643Y-19674D01*
X32674Y-19729D01*
X32691Y-20037D01*
X32674Y-19729D02*
X32699Y-19671D01*
X32754Y-19640D01*
X32838Y-19635D01*
X32896Y-19660D01*
X32927Y-19714D01*
X32944Y-20023D01*
X30896Y-20431D02*
X30758Y-20438D01*
X30929Y-21000D02*
X30835Y-19369D01*
X30791Y-21007D02*
X30698Y-19377D01*
X30758Y-20438D02*
X31188Y-20183D01*
X30758Y-20438D02*
X31214Y-20644D01*
X30896Y-20431D02*
X30440Y-20225D01*
X30896Y-20431D02*
X30467Y-20686D01*
X22993Y-19628D02*
X22993Y-19685D01*
X22965Y-19741D01*
X22937Y-19769D01*
X22880Y-19797D01*
X22768Y-19825D01*
X22627Y-19825D01*
X22515Y-19797D01*
X22458Y-19769D01*
X22430Y-19741D01*
X22402Y-19685D01*
X22402Y-19628D01*
X22430Y-19572D01*
X22458Y-19544D01*
X22515Y-19516D01*
X22627Y-19488D01*
X22768Y-19488D01*
X22880Y-19516D01*
X22937Y-19544D01*
X22965Y-19572D01*
X22993Y-19628D01*
X22458Y-20078D02*
X22430Y-20106D01*
X22402Y-20078D01*
X22430Y-20050D01*
X22458Y-20078D01*
X22402Y-20078D01*
X22937Y-20331D02*
X22965Y-20359D01*
X22993Y-20416D01*
X22993Y-20556D01*
X22965Y-20613D01*
X22937Y-20641D01*
X22880Y-20669D01*
X22824Y-20669D01*
X22740Y-20641D01*
X22402Y-20303D01*
X22402Y-20669D01*
X22993Y-21034D02*
X22993Y-21091D01*
X22965Y-21147D01*
X22937Y-21175D01*
X22880Y-21203D01*
X22768Y-21231D01*
X22627Y-21231D01*
X22515Y-21203D01*
X22458Y-21175D01*
X22430Y-21147D01*
X22402Y-21091D01*
X22402Y-21034D01*
X22430Y-20978D01*
X22458Y-20950D01*
X22515Y-20922D01*
X22627Y-20894D01*
X22768Y-20894D01*
X22880Y-20922D01*
X22937Y-20950D01*
X22965Y-20978D01*
X22993Y-21034D01*
X22993Y-21597D02*
X22993Y-21653D01*
X22965Y-21709D01*
X22937Y-21737D01*
X22880Y-21766D01*
X22768Y-21794D01*
X22627Y-21794D01*
X22515Y-21766D01*
X22458Y-21737D01*
X22430Y-21709D01*
X22402Y-21653D01*
X22402Y-21597D01*
X22430Y-21541D01*
X22458Y-21512D01*
X22515Y-21484D01*
X22627Y-21456D01*
X22768Y-21456D01*
X22880Y-21484D01*
X22937Y-21512D01*
X22965Y-21541D01*
X22993Y-21597D01*
X22402Y-22497D02*
X22796Y-22497D01*
X22740Y-22497D02*
X22768Y-22525D01*
X22796Y-22581D01*
X22796Y-22665D01*
X22768Y-22722D01*
X22712Y-22750D01*
X22402Y-22750D01*
X22712Y-22750D02*
X22768Y-22778D01*
X22796Y-22834D01*
X22796Y-22919D01*
X22768Y-22975D01*
X22712Y-23003D01*
X22402Y-23003D01*
X22402Y-23284D02*
X22796Y-23284D01*
X22740Y-23284D02*
X22768Y-23312D01*
X22796Y-23368D01*
X22796Y-23453D01*
X22768Y-23509D01*
X22712Y-23537D01*
X22402Y-23537D01*
X22712Y-23537D02*
X22768Y-23565D01*
X22796Y-23622D01*
X22796Y-23706D01*
X22768Y-23762D01*
X22712Y-23790D01*
X22402Y-23790D01*
X23173Y-21614D02*
X23173Y-21692D01*
X24011Y-21614D02*
X22110Y-21614D01*
X24011Y-21692D02*
X22110Y-21692D01*
X23173Y-21692D02*
X22942Y-21249D01*
X23173Y-21692D02*
X23404Y-21249D01*
X23173Y-21614D02*
X22942Y-22057D01*
X23173Y-21614D02*
X23404Y-22057D01*
X25652Y-19210D02*
X25653Y-19266D01*
X25626Y-19323D01*
X25599Y-19352D01*
X25543Y-19381D01*
X25431Y-19411D01*
X25291Y-19414D01*
X25178Y-19388D01*
X25121Y-19361D01*
X25092Y-19333D01*
X25063Y-19278D01*
X25062Y-19221D01*
X25089Y-19165D01*
X25117Y-19136D01*
X25172Y-19107D01*
X25284Y-19076D01*
X25425Y-19074D01*
X25538Y-19100D01*
X25595Y-19127D01*
X25623Y-19154D01*
X25652Y-19210D01*
X25127Y-19670D02*
X25099Y-19699D01*
X25071Y-19671D01*
X25098Y-19643D01*
X25127Y-19670D01*
X25071Y-19671D01*
X25672Y-20222D02*
X25666Y-19941D01*
X25385Y-19918D01*
X25413Y-19946D01*
X25443Y-20002D01*
X25445Y-20142D01*
X25418Y-20199D01*
X25391Y-20228D01*
X25335Y-20257D01*
X25194Y-20259D01*
X25138Y-20232D01*
X25109Y-20205D01*
X25080Y-20149D01*
X25077Y-20009D01*
X25104Y-19952D01*
X25132Y-19923D01*
X25679Y-20616D02*
X25680Y-20672D01*
X25653Y-20729D01*
X25626Y-20757D01*
X25570Y-20787D01*
X25458Y-20817D01*
X25318Y-20820D01*
X25205Y-20794D01*
X25148Y-20767D01*
X25119Y-20739D01*
X25090Y-20683D01*
X25089Y-20627D01*
X25116Y-20570D01*
X25144Y-20542D01*
X25199Y-20512D01*
X25311Y-20482D01*
X25452Y-20480D01*
X25565Y-20505D01*
X25622Y-20533D01*
X25650Y-20560D01*
X25679Y-20616D01*
X25690Y-21178D02*
X25691Y-21234D01*
X25664Y-21291D01*
X25637Y-21320D01*
X25581Y-21349D01*
X25469Y-21379D01*
X25328Y-21382D01*
X25215Y-21356D01*
X25159Y-21329D01*
X25130Y-21301D01*
X25101Y-21246D01*
X25100Y-21189D01*
X25127Y-21133D01*
X25154Y-21104D01*
X25210Y-21075D01*
X25322Y-21045D01*
X25463Y-21042D01*
X25576Y-21068D01*
X25632Y-21095D01*
X25661Y-21122D01*
X25690Y-21178D01*
X25117Y-22089D02*
X25511Y-22082D01*
X25454Y-22083D02*
X25483Y-22110D01*
X25512Y-22166D01*
X25514Y-22250D01*
X25487Y-22307D01*
X25431Y-22336D01*
X25122Y-22342D01*
X25431Y-22336D02*
X25488Y-22363D01*
X25517Y-22419D01*
X25519Y-22503D01*
X25492Y-22560D01*
X25436Y-22589D01*
X25127Y-22595D01*
X25132Y-22876D02*
X25526Y-22869D01*
X25470Y-22870D02*
X25498Y-22898D01*
X25527Y-22953D01*
X25529Y-23038D01*
X25502Y-23094D01*
X25446Y-23124D01*
X25137Y-23129D01*
X25446Y-23124D02*
X25503Y-23151D01*
X25532Y-23206D01*
X25534Y-23291D01*
X25507Y-23347D01*
X25451Y-23377D01*
X25142Y-23383D01*
X24806Y-21153D02*
X24810Y-21350D01*
X24031Y-21169D02*
X25869Y-21132D01*
X24035Y-21366D02*
X25873Y-21329D01*
X24810Y-21350D02*
X24571Y-20911D01*
X24810Y-21350D02*
X25032Y-20902D01*
X24806Y-21153D02*
X24584Y-21601D01*
X24806Y-21153D02*
X25046Y-21592D01*
X29886Y-21745D02*
X29942Y-21746D01*
X29998Y-21775D01*
X30025Y-21803D01*
X30053Y-21860D01*
X30079Y-21973D01*
X30076Y-22114D01*
X30046Y-22226D01*
X30017Y-22281D01*
X29989Y-22309D01*
X29932Y-22336D01*
X29876Y-22335D01*
X29820Y-22306D01*
X29792Y-22278D01*
X29765Y-22221D01*
X29739Y-22108D01*
X29741Y-21967D01*
X29771Y-21855D01*
X29801Y-21800D01*
X29829Y-21772D01*
X29886Y-21745D01*
X30326Y-22287D02*
X30354Y-22315D01*
X30325Y-22343D01*
X30298Y-22314D01*
X30326Y-22287D01*
X30325Y-22343D01*
X30870Y-21762D02*
X30757Y-21760D01*
X30701Y-21787D01*
X30672Y-21815D01*
X30614Y-21898D01*
X30584Y-22010D01*
X30580Y-22235D01*
X30608Y-22292D01*
X30635Y-22320D01*
X30691Y-22349D01*
X30803Y-22351D01*
X30860Y-22324D01*
X30889Y-22297D01*
X30918Y-22241D01*
X30920Y-22100D01*
X30893Y-22044D01*
X30866Y-22015D01*
X30810Y-21986D01*
X30697Y-21984D01*
X30641Y-22011D01*
X30612Y-22039D01*
X30583Y-22094D01*
X31123Y-21766D02*
X31489Y-21773D01*
X31288Y-21994D01*
X31372Y-21996D01*
X31428Y-22025D01*
X31456Y-22053D01*
X31483Y-22110D01*
X31480Y-22251D01*
X31451Y-22307D01*
X31422Y-22334D01*
X31366Y-22361D01*
X31197Y-22358D01*
X31141Y-22329D01*
X31114Y-22301D01*
X31854Y-21779D02*
X31910Y-21780D01*
X31966Y-21809D01*
X31994Y-21838D01*
X32021Y-21895D01*
X32047Y-22008D01*
X32045Y-22148D01*
X32014Y-22260D01*
X31985Y-22316D01*
X31957Y-22343D01*
X31900Y-22371D01*
X31844Y-22370D01*
X31788Y-22341D01*
X31760Y-22312D01*
X31733Y-22255D01*
X31707Y-22142D01*
X31710Y-22002D01*
X31740Y-21890D01*
X31769Y-21834D01*
X31797Y-21806D01*
X31854Y-21779D01*
X32744Y-22385D02*
X32750Y-21992D01*
X32749Y-22048D02*
X32778Y-22020D01*
X32835Y-21993D01*
X32919Y-21995D01*
X32975Y-22024D01*
X33002Y-22080D01*
X32997Y-22390D01*
X33002Y-22080D02*
X33031Y-22025D01*
X33088Y-21998D01*
X33172Y-21999D01*
X33228Y-22028D01*
X33255Y-22085D01*
X33250Y-22394D01*
X33531Y-22399D02*
X33538Y-22005D01*
X33537Y-22062D02*
X33565Y-22034D01*
X33622Y-22007D01*
X33706Y-22008D01*
X33762Y-22037D01*
X33789Y-22094D01*
X33784Y-22403D01*
X33789Y-22094D02*
X33818Y-22038D01*
X33875Y-22011D01*
X33959Y-22013D01*
X34015Y-22042D01*
X34042Y-22099D01*
X34037Y-22408D01*
X32020Y-22665D02*
X31772Y-22661D01*
X32011Y-23196D02*
X32037Y-21602D01*
X31763Y-23192D02*
X31789Y-21598D01*
X31772Y-22661D02*
X32219Y-22437D01*
X31772Y-22661D02*
X32211Y-22899D01*
X32020Y-22665D02*
X31580Y-22427D01*
X32020Y-22665D02*
X31573Y-22889D01*
X22365Y-23079D02*
X22365Y-23023D01*
X22393Y-22967D01*
X22421Y-22939D01*
X22477Y-22911D01*
X22589Y-22883D01*
X22730Y-22883D01*
X22843Y-22911D01*
X22899Y-22939D01*
X22927Y-22967D01*
X22955Y-23023D01*
X22955Y-23079D01*
X22927Y-23136D01*
X22899Y-23164D01*
X22843Y-23192D01*
X22730Y-23220D01*
X22589Y-23220D01*
X22477Y-23192D01*
X22421Y-23164D01*
X22393Y-23136D01*
X22365Y-23079D01*
X22899Y-22629D02*
X22927Y-22601D01*
X22955Y-22629D01*
X22927Y-22658D01*
X22899Y-22629D01*
X22955Y-22629D01*
X22561Y-22095D02*
X22955Y-22095D01*
X22336Y-22236D02*
X22758Y-22376D01*
X22758Y-22011D01*
X22618Y-21701D02*
X22589Y-21758D01*
X22561Y-21786D01*
X22505Y-21814D01*
X22477Y-21814D01*
X22421Y-21786D01*
X22393Y-21758D01*
X22365Y-21701D01*
X22365Y-21589D01*
X22393Y-21533D01*
X22421Y-21505D01*
X22477Y-21476D01*
X22505Y-21476D01*
X22561Y-21505D01*
X22589Y-21533D01*
X22618Y-21589D01*
X22618Y-21701D01*
X22646Y-21758D01*
X22674Y-21786D01*
X22730Y-21814D01*
X22843Y-21814D01*
X22899Y-21786D01*
X22927Y-21758D01*
X22955Y-21701D01*
X22955Y-21589D01*
X22927Y-21533D01*
X22899Y-21505D01*
X22843Y-21476D01*
X22730Y-21476D01*
X22674Y-21505D01*
X22646Y-21533D01*
X22618Y-21589D01*
X22365Y-21111D02*
X22365Y-21055D01*
X22393Y-20998D01*
X22421Y-20970D01*
X22477Y-20942D01*
X22589Y-20914D01*
X22730Y-20914D01*
X22843Y-20942D01*
X22899Y-20970D01*
X22927Y-20998D01*
X22955Y-21055D01*
X22955Y-21111D01*
X22927Y-21167D01*
X22899Y-21195D01*
X22843Y-21223D01*
X22730Y-21251D01*
X22589Y-21251D01*
X22477Y-21223D01*
X22421Y-21195D01*
X22393Y-21167D01*
X22365Y-21111D01*
X22955Y-20211D02*
X22561Y-20211D01*
X22618Y-20211D02*
X22589Y-20183D01*
X22561Y-20127D01*
X22561Y-20042D01*
X22589Y-19986D01*
X22646Y-19958D01*
X22955Y-19958D01*
X22646Y-19958D02*
X22589Y-19930D01*
X22561Y-19874D01*
X22561Y-19789D01*
X22589Y-19733D01*
X22646Y-19705D01*
X22955Y-19705D01*
X22955Y-19424D02*
X22561Y-19424D01*
X22618Y-19424D02*
X22589Y-19395D01*
X22561Y-19339D01*
X22561Y-19255D01*
X22589Y-19199D01*
X22646Y-19170D01*
X22955Y-19170D01*
X22646Y-19170D02*
X22589Y-19142D01*
X22561Y-19086D01*
X22561Y-19002D01*
X22589Y-18946D01*
X22646Y-18917D01*
X22955Y-18917D01*
X23248Y-21149D02*
X23248Y-20960D01*
X23574Y-21149D02*
X22185Y-21149D01*
X23574Y-20960D02*
X22185Y-20960D01*
X23248Y-20960D02*
X23478Y-21404D01*
X23248Y-20960D02*
X23017Y-21404D01*
X23248Y-21149D02*
X23478Y-20706D01*
X23248Y-21149D02*
X23017Y-20706D01*
X32836Y-19400D02*
X32838Y-19456D01*
X32812Y-19513D01*
X32785Y-19543D01*
X32730Y-19573D01*
X32619Y-19605D01*
X32478Y-19610D01*
X32365Y-19586D01*
X32307Y-19560D01*
X32278Y-19533D01*
X32248Y-19478D01*
X32246Y-19422D01*
X32272Y-19364D01*
X32299Y-19335D01*
X32354Y-19305D01*
X32466Y-19273D01*
X32606Y-19268D01*
X32720Y-19292D01*
X32777Y-19318D01*
X32806Y-19345D01*
X32836Y-19400D01*
X32319Y-19869D02*
X32292Y-19898D01*
X32263Y-19871D01*
X32290Y-19842D01*
X32319Y-19869D01*
X32263Y-19871D01*
X32873Y-20412D02*
X32863Y-20131D01*
X32581Y-20113D01*
X32610Y-20140D01*
X32640Y-20195D01*
X32645Y-20336D01*
X32619Y-20393D01*
X32592Y-20422D01*
X32537Y-20452D01*
X32397Y-20457D01*
X32339Y-20431D01*
X32310Y-20404D01*
X32280Y-20349D01*
X32275Y-20208D01*
X32301Y-20151D01*
X32328Y-20122D01*
X32882Y-20636D02*
X32895Y-21002D01*
X32663Y-20813D01*
X32666Y-20898D01*
X32640Y-20955D01*
X32613Y-20984D01*
X32558Y-21014D01*
X32417Y-21019D01*
X32360Y-20993D01*
X32331Y-20966D01*
X32301Y-20911D01*
X32294Y-20742D01*
X32321Y-20685D01*
X32348Y-20656D01*
X32908Y-21367D02*
X32910Y-21423D01*
X32884Y-21481D01*
X32857Y-21510D01*
X32802Y-21540D01*
X32691Y-21572D01*
X32550Y-21577D01*
X32437Y-21553D01*
X32380Y-21527D01*
X32350Y-21500D01*
X32320Y-21445D01*
X32318Y-21389D01*
X32344Y-21332D01*
X32371Y-21302D01*
X32426Y-21272D01*
X32538Y-21240D01*
X32678Y-21235D01*
X32792Y-21259D01*
X32849Y-21285D01*
X32878Y-21312D01*
X32908Y-21367D01*
X32351Y-22288D02*
X32745Y-22274D01*
X32688Y-22276D02*
X32718Y-22303D01*
X32748Y-22358D01*
X32751Y-22442D01*
X32725Y-22499D01*
X32670Y-22530D01*
X32360Y-22541D01*
X32670Y-22530D02*
X32727Y-22556D01*
X32757Y-22611D01*
X32760Y-22695D01*
X32734Y-22752D01*
X32679Y-22783D01*
X32370Y-22794D01*
X32380Y-23075D02*
X32773Y-23061D01*
X32717Y-23063D02*
X32746Y-23090D01*
X32777Y-23145D01*
X32780Y-23229D01*
X32754Y-23286D01*
X32698Y-23317D01*
X32389Y-23328D01*
X32698Y-23317D02*
X32756Y-23343D01*
X32786Y-23398D01*
X32789Y-23482D01*
X32763Y-23539D01*
X32708Y-23569D01*
X32399Y-23581D01*
X33094Y-21521D02*
X33086Y-21312D01*
X33547Y-21503D02*
X32032Y-21561D01*
X33539Y-21295D02*
X32024Y-21352D01*
X33086Y-21312D02*
X33334Y-21746D01*
X33086Y-21312D02*
X32872Y-21764D01*
X33094Y-21521D02*
X33308Y-21069D01*
X33094Y-21521D02*
X32847Y-21086D01*
X24842Y-22452D02*
X24846Y-22508D01*
X24821Y-22566D01*
X24795Y-22596D01*
X24741Y-22628D01*
X24630Y-22663D01*
X24490Y-22673D01*
X24376Y-22652D01*
X24318Y-22628D01*
X24288Y-22602D01*
X24256Y-22547D01*
X24253Y-22491D01*
X24277Y-22433D01*
X24303Y-22403D01*
X24357Y-22371D01*
X24468Y-22336D01*
X24608Y-22327D01*
X24722Y-22347D01*
X24780Y-22372D01*
X24810Y-22398D01*
X24842Y-22452D01*
X24338Y-22936D02*
X24312Y-22966D01*
X24282Y-22940D01*
X24309Y-22910D01*
X24338Y-22936D01*
X24282Y-22940D01*
X24887Y-23125D02*
X24911Y-23490D01*
X24673Y-23309D01*
X24679Y-23393D01*
X24654Y-23451D01*
X24628Y-23481D01*
X24574Y-23513D01*
X24434Y-23522D01*
X24376Y-23498D01*
X24346Y-23471D01*
X24314Y-23417D01*
X24303Y-23249D01*
X24327Y-23191D01*
X24353Y-23161D01*
X24924Y-23687D02*
X24950Y-24079D01*
X24344Y-23866D01*
X24982Y-24556D02*
X24974Y-24444D01*
X24942Y-24390D01*
X24912Y-24364D01*
X24824Y-24313D01*
X24710Y-24293D01*
X24486Y-24308D01*
X24432Y-24339D01*
X24405Y-24369D01*
X24381Y-24427D01*
X24389Y-24539D01*
X24420Y-24594D01*
X24450Y-24620D01*
X24508Y-24644D01*
X24649Y-24635D01*
X24703Y-24603D01*
X24729Y-24573D01*
X24753Y-24515D01*
X24746Y-24403D01*
X24714Y-24349D01*
X24684Y-24323D01*
X24626Y-24298D01*
X24443Y-25353D02*
X24835Y-25327D01*
X24779Y-25331D02*
X24809Y-25357D01*
X24841Y-25411D01*
X24847Y-25495D01*
X24822Y-25553D01*
X24768Y-25585D01*
X24459Y-25606D01*
X24768Y-25585D02*
X24826Y-25610D01*
X24858Y-25664D01*
X24863Y-25748D01*
X24839Y-25806D01*
X24785Y-25838D01*
X24476Y-25858D01*
X24495Y-26139D02*
X24888Y-26113D01*
X24832Y-26117D02*
X24861Y-26143D01*
X24893Y-26197D01*
X24899Y-26281D01*
X24874Y-26339D01*
X24820Y-26371D01*
X24512Y-26391D01*
X24820Y-26371D02*
X24878Y-26395D01*
X24910Y-26450D01*
X24916Y-26534D01*
X24891Y-26592D01*
X24837Y-26623D01*
X24528Y-26644D01*
X24090Y-24457D02*
X24100Y-24605D01*
X23631Y-24488D02*
X25151Y-24386D01*
X23641Y-24635D02*
X25160Y-24534D01*
X24100Y-24605D02*
X23840Y-24178D01*
X24100Y-24605D02*
X24301Y-24147D01*
X24090Y-24457D02*
X23889Y-24915D01*
X24090Y-24457D02*
X24350Y-24884D01*
X35646Y-19574D02*
X35646Y-19630D01*
X35618Y-19687D01*
X35590Y-19715D01*
X35534Y-19743D01*
X35421Y-19771D01*
X35281Y-19771D01*
X35168Y-19743D01*
X35112Y-19715D01*
X35084Y-19687D01*
X35056Y-19630D01*
X35056Y-19574D01*
X35084Y-19518D01*
X35112Y-19490D01*
X35168Y-19462D01*
X35281Y-19434D01*
X35421Y-19434D01*
X35534Y-19462D01*
X35590Y-19490D01*
X35618Y-19518D01*
X35646Y-19574D01*
X35112Y-20024D02*
X35084Y-20052D01*
X35056Y-20024D01*
X35084Y-19996D01*
X35112Y-20024D01*
X35056Y-20024D01*
X35590Y-20277D02*
X35618Y-20305D01*
X35646Y-20362D01*
X35646Y-20502D01*
X35618Y-20558D01*
X35590Y-20587D01*
X35534Y-20615D01*
X35478Y-20615D01*
X35393Y-20587D01*
X35056Y-20249D01*
X35056Y-20615D01*
X35590Y-20840D02*
X35618Y-20868D01*
X35646Y-20924D01*
X35646Y-21065D01*
X35618Y-21121D01*
X35590Y-21149D01*
X35534Y-21177D01*
X35478Y-21177D01*
X35393Y-21149D01*
X35056Y-20812D01*
X35056Y-21177D01*
X35646Y-21711D02*
X35646Y-21430D01*
X35365Y-21402D01*
X35393Y-21430D01*
X35421Y-21486D01*
X35421Y-21627D01*
X35393Y-21683D01*
X35365Y-21711D01*
X35309Y-21740D01*
X35168Y-21740D01*
X35112Y-21711D01*
X35084Y-21683D01*
X35056Y-21627D01*
X35056Y-21486D01*
X35084Y-21430D01*
X35112Y-21402D01*
X35056Y-22443D02*
X35449Y-22443D01*
X35393Y-22443D02*
X35421Y-22471D01*
X35449Y-22527D01*
X35449Y-22611D01*
X35421Y-22668D01*
X35365Y-22696D01*
X35056Y-22696D01*
X35365Y-22696D02*
X35421Y-22724D01*
X35449Y-22780D01*
X35449Y-22864D01*
X35421Y-22921D01*
X35365Y-22949D01*
X35056Y-22949D01*
X35056Y-23230D02*
X35449Y-23230D01*
X35393Y-23230D02*
X35421Y-23258D01*
X35449Y-23314D01*
X35449Y-23399D01*
X35421Y-23455D01*
X35365Y-23483D01*
X35056Y-23483D01*
X35365Y-23483D02*
X35421Y-23511D01*
X35449Y-23567D01*
X35449Y-23652D01*
X35421Y-23708D01*
X35365Y-23736D01*
X35056Y-23736D01*
X34763Y-21555D02*
X34763Y-21643D01*
X34094Y-21555D02*
X35826Y-21555D01*
X34094Y-21643D02*
X35826Y-21643D01*
X34763Y-21643D02*
X34532Y-21200D01*
X34763Y-21643D02*
X34994Y-21200D01*
X34763Y-21555D02*
X34532Y-21998D01*
X34763Y-21555D02*
X34994Y-21998D01*
G54D12*
X10452Y-17007D02*
X10452Y-16417D01*
X33897Y-33405D02*
X33641Y-33405D01*
M02*
