M48
;DRILL file {Pcbnew (2013-mar-13)-testing} date Thu 05 Sep 2013 22:07:51 BST
;FORMAT={-:-/ absolute / metric / decimal}
FMAT,2
METRIC,TZ
T1C0.500
T2C1.016
T3C4.000
%
G90
G05
M71
T1
X48.95Y-63.6
X49.95Y-64.425
X56.45Y-93.55
X56.65Y-66.5
X58.2Y-66.55
X58.25Y-93.55
X59.675Y-87.5
X59.68Y-60.08
X59.825Y-83.625
X60.075Y-56.65
X81.9Y-84.05
X81.95Y-57.1
X83.Y-85.95
X83.05Y-58.9
X104.325Y-66.55
X107.025Y-66.65
X107.3Y-93.45
X109.05Y-93.5
X110.4Y-87.6
X110.43Y-60.13
X110.575Y-83.75
X110.875Y-56.625
X132.65Y-84.05
X132.75Y-57.3
X133.7Y-86.
X133.8Y-59.
T2
X47.95Y-74.58
X47.95Y-77.12
T3
X45.2Y-42.15
X45.2Y-92.25
X154.6Y-42.15
X154.6Y-92.25
T0
M30
