PCBNEW-LibModule-V1  27/09/2012 13:40:05
# encoding utf-8
$INDEX
CHIP-ANT-6.5x2.2
JST-B2B-ZR
M701-280442R
PINHEADER_127_1X1
PINHEADER_127_2X1
PINHEADER_127_2X10
PINHEADER_127_2X16
PINHEADER_3X1
PINHEADER_4X1
WE_MICRO_B_USB
ZX62-B-5PA_11
ZX62-B-5PA_11_CFK
ZX62R-B-5P
$EndINDEX
$MODULE PINHEADER_4X1
Po 0 0 0 15 4DC84044 00000000 ~~
Li PINHEADER_4X1
Sc 00000000
AR PINHEADER_4X1
Op 0 0 0
T0 1673 1146 600 600 0 120 N V 21 N"PINHEADER_4X1"
T1 1693 -760 276 276 0 49 N V 21 N"VAL**"
DS 1071 -492 1992 -492 59 21
DS 1992 -492 1992 492 59 21
DS 1992 492 -791 492 59 21
DS -791 492 -843 492 59 21
DS -1500 -492 -1992 -492 59 21
DS -1992 -492 -1992 492 59 21
DS -1992 492 -811 492 59 21
DS -1500 -492 1059 -492 59 21
$PAD
Sh "1" R 636 636 0 0 0
Dr 400 0 0
At STD N 00E0FFFF
Ne 0 ""
Po -1500 0
$EndPAD
$PAD
Sh "2" C 636 636 0 0 0
Dr 400 0 0
At STD N 00E0FFFF
Ne 0 ""
Po -500 0
$EndPAD
$PAD
Sh "3" C 636 636 0 0 0
Dr 400 0 0
At STD N 00E0FFFF
Ne 0 ""
Po 500 0
$EndPAD
$PAD
Sh "4" C 636 636 0 0 0
Dr 400 0 0
At STD N 00E0FFFF
Ne 0 ""
Po 1500 0
$EndPAD
$EndMODULE  PINHEADER_4X1
$MODULE PINHEADER_3X1
Po 0 0 0 15 4DC84064 00000000 ~~
Li PINHEADER_3X1
Sc 00000000
AR PINHEADER_4X1
Op 0 0 0
T0 1673 1146 600 600 0 120 N V 21 N"PINHEADER_3X1"
T1 1181 -933 276 276 0 49 N V 21 N"VAL**"
DS 1488 -492 -1008 -492 59 21
DS 1488 492 -350 492 59 21
DS 1488 -488 1488 496 59 21
DS -295 492 -347 492 59 21
DS -1004 -492 -1496 -492 59 21
DS -1496 -492 -1496 492 59 21
DS -1496 492 -315 492 59 21
$PAD
Sh "1" R 636 636 0 0 0
Dr 400 0 0
At STD N 00E0FFFF
Ne 0 ""
Po -1004 0
$EndPAD
$PAD
Sh "2" C 636 636 0 0 0
Dr 400 0 0
At STD N 00E0FFFF
Ne 0 ""
Po -4 0
$EndPAD
$PAD
Sh "3" C 636 636 0 0 0
Dr 400 0 0
At STD N 00E0FFFF
Ne 0 ""
Po 996 0
$EndPAD
$EndMODULE  PINHEADER_3X1
$MODULE PINHEADER_127_2X16
Po 0 0 0 15 4E2BDC2E 00000000 ~~
Li PINHEADER_127_2X16
Sc 00000000
AR
Op 0 0 0
T0 0 -1000 394 394 0 99 N V 21 N "PINHEADER_127_2X16"
T1 0 1000 394 394 0 99 N V 21 N "VAL**"
DS -2100 -600 -2100 600 79 21
DS -2100 600 2100 600 79 21
DS 2100 600 2100 -600 79 21
DS 2100 -600 -2100 -600 79 21
$PAD
Sh "1" R 315 394 0 0 0
Dr 236 0 39
At STD N 00E0FFFF
Ne 0 ""
Po -1750 250
$EndPAD
$PAD
Sh "2" O 315 394 0 0 0
Dr 236 0 -39
At STD N 00E0FFFF
Ne 0 ""
Po -1750 -250
$EndPAD
$PAD
Sh "4" O 315 394 0 0 0
Dr 236 0 -39
At STD N 00E0FFFF
Ne 0 ""
Po -1250 -250
$EndPAD
$PAD
Sh "6" O 315 394 0 0 0
Dr 236 0 -39
At STD N 00E0FFFF
Ne 0 ""
Po -750 -250
$EndPAD
$PAD
Sh "8" O 315 394 0 0 0
Dr 236 0 -39
At STD N 00E0FFFF
Ne 0 ""
Po -250 -250
$EndPAD
$PAD
Sh "10" O 315 394 0 0 0
Dr 236 0 -39
At STD N 00E0FFFF
Ne 0 ""
Po 250 -250
$EndPAD
$PAD
Sh "12" O 315 394 0 0 0
Dr 236 0 -39
At STD N 00E0FFFF
Ne 0 ""
Po 750 -250
$EndPAD
$PAD
Sh "14" O 315 394 0 0 0
Dr 236 0 -39
At STD N 00E0FFFF
Ne 0 ""
Po 1250 -250
$EndPAD
$PAD
Sh "16" O 315 394 0 0 0
Dr 236 0 -39
At STD N 00E0FFFF
Ne 0 ""
Po 1750 -250
$EndPAD
$PAD
Sh "3" O 315 394 0 0 0
Dr 236 0 39
At STD N 00E0FFFF
Ne 0 ""
Po -1250 250
$EndPAD
$PAD
Sh "5" O 315 394 0 0 0
Dr 236 0 39
At STD N 00E0FFFF
Ne 0 ""
Po -750 250
$EndPAD
$PAD
Sh "7" O 315 394 0 0 0
Dr 236 0 39
At STD N 00E0FFFF
Ne 0 ""
Po -250 250
$EndPAD
$PAD
Sh "9" O 315 394 0 0 0
Dr 236 0 39
At STD N 00E0FFFF
Ne 0 ""
Po 250 250
$EndPAD
$PAD
Sh "11" O 315 394 0 0 0
Dr 236 0 39
At STD N 00E0FFFF
Ne 0 ""
Po 750 250
$EndPAD
$PAD
Sh "13" O 315 394 0 0 0
Dr 236 0 39
At STD N 00E0FFFF
Ne 0 ""
Po 1250 250
$EndPAD
$PAD
Sh "15" O 315 394 0 0 0
Dr 236 0 39
At STD N 00E0FFFF
Ne 0 ""
Po 1750 250
$EndPAD
$EndMODULE  PINHEADER_127_2X16
$MODULE PINHEADER_127_2X10
Po 0 0 0 15 4E4C2BA0 00000000 ~~
Li PINHEADER_127_2X10
Sc 00000000
AR
Op 0 0 0
T0 0 -1000 394 394 0 99 N V 21 N "PINHEADER_127_2X10"
T1 0 1000 394 394 0 99 N V 21 N "VAL**"
DS -2600 -600 2600 -600 79 21
DS 2600 -600 2600 600 79 21
DS 2600 600 -2600 600 79 21
DS -2600 600 -2600 -600 79 21
$PAD
Sh "19" O 315 472 0 0 0
Dr 236 0 39
At STD N 00E0FFFF
Ne 0 ""
Po 2250 250
$EndPAD
$PAD
Sh "17" O 315 472 0 0 0
Dr 236 0 39
At STD N 00E0FFFF
Ne 0 ""
Po 1750 250
$EndPAD
$PAD
Sh "20" O 315 472 0 0 0
Dr 236 0 -39
At STD N 00E0FFFF
Ne 0 ""
Po 2250 -250
$EndPAD
$PAD
Sh "18" O 315 472 0 0 0
Dr 236 0 -39
At STD N 00E0FFFF
Ne 0 ""
Po 1750 -250
$EndPAD
$PAD
Sh "1" R 315 472 0 0 0
Dr 236 0 39
At STD N 00E0FFFF
Ne 0 ""
Po -2250 250
$EndPAD
$PAD
Sh "2" O 315 472 0 0 0
Dr 236 0 -39
At STD N 00E0FFFF
Ne 0 ""
Po -2250 -250
$EndPAD
$PAD
Sh "4" O 315 472 0 0 0
Dr 236 0 -39
At STD N 00E0FFFF
Ne 0 ""
Po -1750 -250
$EndPAD
$PAD
Sh "6" O 315 472 0 0 0
Dr 236 0 -39
At STD N 00E0FFFF
Ne 0 ""
Po -1250 -250
$EndPAD
$PAD
Sh "8" O 315 472 0 0 0
Dr 236 0 -39
At STD N 00E0FFFF
Ne 0 ""
Po -750 -250
$EndPAD
$PAD
Sh "10" O 315 472 0 0 0
Dr 236 0 -39
At STD N 00E0FFFF
Ne 0 ""
Po -250 -250
$EndPAD
$PAD
Sh "12" O 315 472 0 0 0
Dr 236 0 -39
At STD N 00E0FFFF
Ne 0 ""
Po 250 -250
$EndPAD
$PAD
Sh "14" O 315 472 0 0 0
Dr 236 0 -39
At STD N 00E0FFFF
Ne 0 ""
Po 750 -250
$EndPAD
$PAD
Sh "16" O 315 472 0 0 0
Dr 236 0 -39
At STD N 00E0FFFF
Ne 0 ""
Po 1250 -250
$EndPAD
$PAD
Sh "3" O 315 472 0 0 0
Dr 236 0 39
At STD N 00E0FFFF
Ne 0 ""
Po -1750 250
$EndPAD
$PAD
Sh "5" O 315 472 0 0 0
Dr 236 0 39
At STD N 00E0FFFF
Ne 0 ""
Po -1250 250
$EndPAD
$PAD
Sh "7" O 315 472 0 0 0
Dr 236 0 39
At STD N 00E0FFFF
Ne 0 ""
Po -750 250
$EndPAD
$PAD
Sh "9" O 315 472 0 0 0
Dr 236 0 39
At STD N 00E0FFFF
Ne 0 ""
Po -250 250
$EndPAD
$PAD
Sh "11" O 315 472 0 0 0
Dr 236 0 39
At STD N 00E0FFFF
Ne 0 ""
Po 250 250
$EndPAD
$PAD
Sh "13" O 315 472 0 0 0
Dr 236 0 39
At STD N 00E0FFFF
Ne 0 ""
Po 750 250
$EndPAD
$PAD
Sh "15" O 315 472 0 0 0
Dr 236 0 39
At STD N 00E0FFFF
Ne 0 ""
Po 1250 250
$EndPAD
$EndMODULE  PINHEADER_127_2X10
$MODULE ZX62-B-5PA_11
Po 0 0 0 15 4E747CBD 00000000 ~~
Li ZX62-B-5PA_11
Sc 00000000
AR ZX62-B-5PA(11)
Op 0 0 0
T0 0 1496 600 600 0 120 N V 21 N "ZX62-B-5PA_11"
T1 -1059 -1803 276 276 0 49 N V 21 N "VAL**"
DS 1614 -610 1614 -453 79 21
DS -1614 -610 -1614 -453 79 21
DS -1555 -1102 1555 -1102 39 24
DS 1555 -1102 1555 866 39 24
DS 1555 866 -1555 866 39 24
DS -1555 866 -1555 -1102 39 24
$PAD
Sh "" R 709 748 0 0 0
Dr 0 0 0
At SMD N 00828000
Ne 0 ""
Po -1594 0
$EndPAD
$PAD
Sh "" R 709 748 0 0 0
Dr 0 0 0
At SMD N 00888000
Ne 0 ""
Po 1594 0
$EndPAD
$PAD
Sh "" R 748 748 0 0 0
Dr 0 0 0
At SMD N 00888000
Ne 0 ""
Po -472 0
$EndPAD
$PAD
Sh "" R 748 748 0 0 0
Dr 0 0 0
At SMD N 00888000
Ne 0 ""
Po 472 0
$EndPAD
$PAD
Sh "" R 827 630 0 0 0
Dr 0 0 0
At SMD N 00888000
Ne 0 ""
Po 1220 -1004
$EndPAD
$PAD
Sh "" R 827 630 0 0 0
Dr 0 0 0
At SMD N 00888000
Ne 0 ""
Po -1220 -1004
$EndPAD
$PAD
Sh "3" R 157 630 0 0 0
Dr 0 0 0
At SMD N 00888000
Ne 0 ""
Po 0 -1004
$EndPAD
$PAD
Sh "4" R 157 630 0 0 0
Dr 0 0 0
At SMD N 00888000
Ne 0 ""
Po 256 -1004
$EndPAD
$PAD
Sh "5" R 157 630 0 0 0
Dr 0 0 0
At SMD N 00888000
Ne 0 ""
Po 512 -1004
$EndPAD
$PAD
Sh "2" R 157 630 0 0 0
Dr 0 0 0
At SMD N 00888000
Ne 0 ""
Po -256 -1004
$EndPAD
$PAD
Sh "1" R 157 630 0 0 0
Dr 0 0 0
At SMD N 00888000
Ne 0 ""
Po -512 -1004
$EndPAD
$EndMODULE  ZX62-B-5PA_11
$MODULE ZX62R-B-5P
Po 0 0 0 15 4E748033 00000000 ~~
Li ZX62R-B-5P
Cd SMD micro USB reverse
Kw micro USB
Sc 00000000
AR
Op 0 0 0
T0 4 1386 600 600 0 120 N V 21 N "ZX62R-B-5P"
T1 -870 -1839 276 276 0 49 N V 21 N "VAL**"
DS 2067 -1575 -2067 -1575 59 21
DS -2067 -1575 -2067 571 59 21
DS -2067 571 -1906 571 59 21
DS 1972 571 2067 571 59 21
DS 2067 571 2067 -1575 59 21
DS -1969 571 1969 571 59 21
$PAD
Sh "" R 472 748 0 0 0
Dr 0 0 0
At SMD N 00888000
Ne 0 ""
Po 335 0
$EndPAD
$PAD
Sh "" R 472 748 0 0 0
Dr 0 0 0
At SMD N 00888000
Ne 0 ""
Po -335 0
$EndPAD
$PAD
Sh "" R 630 748 0 0 0
Dr 0 0 0
At SMD N 00888000
Ne 0 ""
Po -1614 0
$EndPAD
$PAD
Sh "" R 630 748 0 0 0
Dr 0 0 0
At SMD N 00888000
Ne 0 ""
Po 1614 0
$EndPAD
$PAD
Sh "" R 827 787 0 0 0
Dr 0 0 0
At SMD N 00888000
Ne 0 ""
Po 1220 -925
$EndPAD
$PAD
Sh "" R 827 787 0 0 0
Dr 0 0 0
At SMD N 00888000
Ne 0 ""
Po -1220 -925
$EndPAD
$PAD
Sh "3" R 157 787 0 0 0
Dr 0 0 0
At SMD N 00888000
Ne 0 ""
Po 0 -925
$EndPAD
$PAD
Sh "2" R 157 787 0 0 0
Dr 0 0 0
At SMD N 00888000
Ne 0 ""
Po 256 -925
$EndPAD
$PAD
Sh "1" R 157 787 0 0 0
Dr 0 0 0
At SMD N 00888000
Ne 0 ""
Po 512 -925
$EndPAD
$PAD
Sh "5" R 157 787 0 0 0
Dr 0 0 0
At SMD N 00888000
Ne 0 ""
Po -512 -925
$EndPAD
$PAD
Sh "4" R 157 787 0 0 0
Dr 0 0 0
At SMD N 00888000
Ne 0 ""
Po -256 -925
$EndPAD
$PAD
Sh "" O 197 571 0 0 0
Dr 197 0 0 O 197 571
At STD N 0000FFFF
Ne 0 ""
Po -945 217
$EndPAD
$PAD
Sh "" O 197 571 0 0 0
Dr 197 0 0 O 197 571
At STD N 0000FFFF
Ne 0 ""
Po 945 217
$EndPAD
$EndMODULE  ZX62R-B-5P
$MODULE PINHEADER_127_2X1
Po 0 0 0 15 4E761AFA 00000000 ~~
Li PINHEADER_127_2X1
Sc 00000000
AR
Op 0 0 0
T0 0 -1000 394 394 0 99 N V 21 N "PINHEADER_127_2X1"
T1 0 1000 394 394 0 99 N V 21 N "VAL**"
DS -276 -669 276 -669 79 21
DS 276 -669 276 669 79 21
DS 276 669 -276 669 79 21
DS -276 669 -276 -669 79 21
$PAD
Sh "1" R 394 551 0 0 0
Dr 236 0 79
At STD N 00E0FFFF
Ne 0 ""
Po 0 250
$EndPAD
$PAD
Sh "2" O 394 551 0 0 0
Dr 236 0 -79
At STD N 00E0FFFF
Ne 0 ""
Po 0 -250
$EndPAD
$EndMODULE  PINHEADER_127_2X1
$MODULE WE_MICRO_B_USB
Po 0 0 0 15 4EAD6571 00000000 ~~
Li WE_MICRO_B_USB
Kw Micro B USB
Sc 00000000
AR ZX62-B-5PA(11)
Op 0 0 0
At SMD
T0 4 1252 315 315 0 79 N I 21 N "629_105_136_821"
T1 0 -1693 315 315 0 79 N V 21 N "VAL**"
DS 787 -1181 1654 -1181 79 21
DS 1654 -1181 1654 -551 79 21
DS -1654 -551 -1654 -1181 79 21
DS -1654 -1181 -787 -1181 79 21
DS -1555 -1102 1555 -1102 39 24
DS 1555 -1102 1555 866 39 24
DS 1555 866 -1555 866 39 24
DS -1555 866 -1555 -1102 39 24
$PAD
Sh "" R 709 748 0 0 0
Dr 0 0 0
At SMD N 00828000
Ne 0 ""
Po -1575 0
$EndPAD
$PAD
Sh "" R 709 748 0 0 0
Dr 0 0 0
At SMD N 00888000
Ne 0 ""
Po 1575 0
$EndPAD
$PAD
Sh "" R 748 748 0 0 0
Dr 0 0 0
At SMD N 00888000
Ne 0 ""
Po -472 0
$EndPAD
$PAD
Sh "" R 748 748 0 0 0
Dr 0 0 0
At SMD N 00888000
Ne 0 ""
Po 472 0
$EndPAD
$PAD
Sh "3" R 157 630 0 0 0
Dr 0 0 0
At SMD N 00888000
Ne 0 ""
Po 0 -1004
$EndPAD
$PAD
Sh "4" R 157 630 0 0 0
Dr 0 0 0
At SMD N 00888000
Ne 0 ""
Po 256 -1004
$EndPAD
$PAD
Sh "5" R 157 630 0 0 0
Dr 0 0 0
At SMD N 00888000
Ne 0 ""
Po 512 -1004
$EndPAD
$PAD
Sh "2" R 157 630 0 0 0
Dr 0 0 0
At SMD N 00888000
Ne 0 ""
Po -256 -1004
$EndPAD
$PAD
Sh "1" R 157 630 0 0 0
Dr 0 0 0
At SMD N 00888000
Ne 0 ""
Po -512 -1004
$EndPAD
$PAD
Sh "" C 276 276 0 0 0
Dr 276 0 0
At STD N 00E0FFFF
Ne 0 ""
Po -817 -965
$EndPAD
$PAD
Sh "" C 276 276 0 0 0
Dr 276 0 0
At STD N 00E0FFFF
Ne 0 ""
Po 817 -965
$EndPAD
$SHAPE3D
Na "..\\kicad-libs\\3d-models\\we-micro-b-usb3.wrl"
Sc 0.395000 0.395000 0.395000
Of 0.000000 0.000000 0.048000
Ro 0.000000 180.000000 0.000000
$EndSHAPE3D
$EndMODULE  WE_MICRO_B_USB
$MODULE CHIP-ANT-6.5x2.2
Po 0 0 0 15 4EE2844E 00000000 ~~
Li CHIP-ANT-6.5x2.2
Sc 00000000
AR
Op 0 0 0
T0 0 -1102 600 600 0 120 N V 21 N "CHIP-ANT-6.5x2.2"
T1 0 1398 600 600 0 120 N V 21 N "VAL**"
DS 866 0 709 157 79 21
DS 0 0 866 0 79 21
DS 866 0 709 -157 79 21
DS 945 -452 -945 -452 79 21
DS 945 452 -945 452 79 21
DS -1280 -433 1280 -433 39 24
DS 1280 -433 1280 433 39 24
DS 1280 433 -1280 433 39 24
DS -1280 433 -1280 -433 39 24
$PAD
Sh "2" R 984 394 0 0 900
Dr 0 0 0
At SMD N 00888000
Ne 0 ""
Po 1299 0
$EndPAD
$PAD
Sh "1" R 984 394 0 0 900
Dr 0 0 0
At SMD N 00888000
Ne 0 ""
Po -1299 0
$EndPAD
$EndMODULE  CHIP-ANT-6.5x2.2
$MODULE PINHEADER_127_1X1
Po 0 0 0 15 4EE2A41D 00000000 ~~
Li PINHEADER_127_1X1
Sc 00000000
AR
Op 0 0 0
T0 0 -709 315 315 0 79 N V 21 N "PINHEADER_127_1X1"
T1 0 748 315 315 0 79 N V 21 N "VAL**"
DS -354 -276 354 -276 79 21
DS 354 -276 354 276 79 21
DS 354 276 -354 276 79 21
DS -354 276 -354 -276 79 21
$PAD
Sh "1" O 551 394 0 0 0
Dr 236 0 0
At STD N 00E0FFFF
Ne 0 ""
Po 0 0
$EndPAD
$EndMODULE  PINHEADER_127_1X1
$MODULE M701-280442R
Po 0 0 0 15 4EE91C01 00000000 ~~
Li M701-280442R
Cd USB Type A SMD Male
Kw usb male type A
Sc 00000000
AR M701-280442R
Op 0 0 0
T0 0 1260 600 600 0 120 N V 21 N "M701-280442R"
T1 157 -1624 394 394 0 79 N V 21 N "VAL**"
DS -2559 -2175 -2559 0 150 21
DS -2559 0 -1762 0 150 21
DS 2559 -2175 2559 0 150 21
DS 2559 0 1762 0 150 21
DS -2559 -2175 2559 -2175 150 21
$PAD
Sh "3" R 402 768 0 0 0
Dr 0 0 0
At SMD N 00888000
Ne 0 ""
Po 394 0
$EndPAD
$PAD
Sh "2" R 402 768 0 0 0
Dr 0 0 0
At SMD N 00888000
Ne 0 ""
Po -394 0
$EndPAD
$PAD
Sh "4" R 402 768 0 0 0
Dr 0 0 0
At SMD N 00888000
Ne 0 ""
Po 1378 0
$EndPAD
$PAD
Sh "1" R 402 768 0 0 0
Dr 0 0 0
At SMD N 00888000
Ne 0 ""
Po -1378 0
$EndPAD
$PAD
Sh "" R 315 1024 0 0 0
Dr 213 0 0 O 213 866
At STD N 00CCFFFF
Ne 0 ""
Po 2311 -1033
$EndPAD
$PAD
Sh "" R 315 1024 0 0 0
Dr 213 0 0 O 213 866
At STD N 00CCFFFF
Ne 0 ""
Po -2311 -1048
$EndPAD
$PAD
Sh "" C 472 472 0 0 0
Dr 472 0 0
At STD N 00E0FFFF
Ne 0 ""
Po 886 -1033
$EndPAD
$PAD
Sh "" C 472 472 0 0 0
Dr 472 0 0
At STD N 00E0FFFF
Ne 0 ""
Po -886 -1033
$EndPAD
$EndMODULE  M701-280442R
$MODULE JST-B2B-ZR
Po 0 0 0 15 50464A4E 00000000 ~~
Li JST-B2B-ZR
Sc 00000000
AR JST-B2B-ZR
Op 0 0 0
T0 0 -827 315 315 0 79 N V 21 N "JST-B2B-ZR"
T1 0 1260 315 315 0 79 N V 21 N "VAL**"
DS -886 -532 886 -532 79 21
DS 886 -532 886 846 79 21
DS 886 886 -886 886 79 21
DS -886 846 -886 -532 79 21
$PAD
Sh "1" R 630 472 0 0 0
Dr 276 -79 0
At STD N 00E0FFFF
Ne 0 ""
Po -295 0
$EndPAD
$PAD
Sh "2" O 630 472 0 0 0
Dr 276 79 0
At STD N 00E0FFFF
Ne 0 ""
Po 295 0
$EndPAD
$EndMODULE  JST-B2B-ZR
$MODULE ZX62-B-5PA_11_CFK
Po 0 0 0 15 50643B04 00000000 ~~
Li ZX62-B-5PA_11_CFK
Sc 00000000
AR /4DE77332/4DE7B5DE
Op 0 0 0
At SMD 
T0 0 689 315 315 0 79 N V 21 N "P7"
T1 20 -1673 315 315 0 79 N V 21 N "MICRO-B-USB"
DS -1220 866 -1220 1102 39 24
DS -1220 1102 1201 1102 39 24
DS 1201 1102 1201 866 39 24
DS -1616 1162 -1419 867 39 24
DS -1715 1103 -1616 1162 39 24
DS -1557 867 -1715 1103 39 24
DS 1555 866 1713 1102 39 24
DS 1713 1102 1614 1161 39 24
DS 1614 1161 1417 866 39 24
DS -1554 177 -1554 866 39 24
DS -1771 177 -1554 177 39 24
DS -1771 -177 -1771 177 39 24
DS -1554 -177 -1771 -177 39 24
DS -1554 -1102 -1554 -177 39 24
DS 1555 -1102 1555 -177 39 24
DS 1555 -177 1772 -177 39 24
DS 1772 -177 1772 177 39 24
DS 1772 177 1555 177 39 24
DS 1555 177 1555 866 39 24
DS 2165 1654 2165 9528 50 24
DS 2165 9528 -2165 9528 50 24
DS -2165 9528 -2165 1654 50 24
DS -2165 1654 2165 1654 50 24
DS 1378 866 1378 1654 50 24
DS 1378 1654 -1378 1654 50 24
DS -1378 1654 -1378 866 50 24
DS 1614 -610 1614 -453 79 21
DS -1614 -610 -1614 -453 79 21
DS -1555 -1102 1555 -1102 39 24
DS 1555 866 -1555 866 39 24
$PAD
Sh "" R 709 748 0 0 0
Dr 0 0 0
At SMD N 00888000
Ne 0 ""
Po -1575 0
$EndPAD
$PAD
Sh "" R 709 433 0 0 0
Dr 0 0 0
At SMD N 00888000
Ne 0 ""
Po 1555 -157
$EndPAD
$PAD
Sh "" R 748 748 0 0 0
Dr 0 0 0
At SMD N 00888000
Ne 0 ""
Po -472 0
$EndPAD
$PAD
Sh "" R 748 748 0 0 0
Dr 0 0 0
At SMD N 00888000
Ne 0 ""
Po 472 0
$EndPAD
$PAD
Sh "" R 827 630 0 0 0
Dr 0 0 0
At SMD N 00888000
Ne 0 ""
Po 1220 -1004
$EndPAD
$PAD
Sh "" R 827 630 0 0 0
Dr 0 0 0
At SMD N 00888000
Ne 0 ""
Po -1220 -1004
$EndPAD
$PAD
Sh "3" R 157 551 0 0 0
Dr 0 0 0
At SMD N 00888000
Ne 1 "/POWER/D+"
Po 0 -1063
$EndPAD
$PAD
Sh "4" R 157 551 0 0 0
Dr 0 0 0
At SMD N 00888000
Ne 0 ""
Po 256 -1063
$EndPAD
$PAD
Sh "5" R 157 551 0 0 0
Dr 0 0 0
At SMD N 00888000
Ne 4 "DGND"
Po 512 -1063
$EndPAD
$PAD
Sh "2" R 157 551 0 0 0
Dr 0 0 0
At SMD N 00888000
Ne 2 "/POWER/D-"
Po -256 -1063
$EndPAD
$PAD
Sh "1" R 157 551 0 0 0
Dr 0 0 0
At SMD N 00888000
Ne 3 "/POWER/VUSB"
Po -512 -1063
$EndPAD
$PAD
Sh "" R 472 748 0 0 0
Dr 0 0 0
At SMD N 00888000
Ne 0 ""
Po 1437 0
$EndPAD
$EndMODULE  ZX62-B-5PA_11_CFK
$EndLIBRARY
