PCBNEW-LibModule-V1  Mon 02 Sep 2013 22:00:46 BST
# encoding utf-8
Units mm
$INDEX
EXB38V
YC248
$EndINDEX
$MODULE EXB38V
Po 0 0 0 15 5215E65E 00000000 ~~
Li EXB38V
Sc 0
AR /52112438
Op 0 0 0
At SMD
T0 -3.05 0.2 0.7 0.7 0 0.15 N V 21 N "U5"
T1 -0.35 2.775 1 1 0 0.15 N I 21 N "560R"
DS -1.825 -1.575 1.825 -1.575 0.15 21
DS 1.825 -1.575 1.825 1.6 0.15 21
DS 1.825 1.6 -1.825 1.6 0.15 21
DS -1.825 1.6 -1.825 -1.575 0.15 21
$PAD
Sh "1" R 0.45 0.8 0 0 1800
Dr 0 0 0
At SMD N 00888000
Ne 2 "N-0000010"
Po -1.2 0.8
$EndPAD
$PAD
Sh "2" R 0.45 0.8 0 0 1800
Dr 0 0 0
At SMD N 00888000
Ne 5 "N-0000077"
Po -0.4 0.8
$EndPAD
$PAD
Sh "3" R 0.45 0.8 0 0 1800
Dr 0 0 0
At SMD N 00888000
Ne 4 "N-0000076"
Po 0.4 0.8
$EndPAD
$PAD
Sh "4" R 0.45 0.8 0 0 1800
Dr 0 0 0
At SMD N 00888000
Ne 3 "N-0000075"
Po 1.2 0.8
$EndPAD
$PAD
Sh "8" R 0.45 0.8 0 0 1800
Dr 0 0 0
At SMD N 00888000
Ne 1 "GND"
Po -1.2 -0.8
$EndPAD
$PAD
Sh "7" R 0.45 0.8 0 0 1800
Dr 0 0 0
At SMD N 00888000
Ne 1 "GND"
Po -0.4 -0.8
$EndPAD
$PAD
Sh "6" R 0.45 0.8 0 0 1800
Dr 0 0 0
At SMD N 00888000
Ne 1 "GND"
Po 0.4 -0.8
$EndPAD
$PAD
Sh "5" R 0.45 0.8 0 0 1800
Dr 0 0 0
At SMD N 00888000
Ne 1 "GND"
Po 1.2 -0.8
$EndPAD
$EndMODULE EXB38V
$MODULE YC248
Po 0 0 0 15 5224FC7C 00000000 ~~
Li YC248
Cd YC124 8x0402 / 0804 Resistor array
Sc 0
AR /521127EA
Op 0 0 0
At SMD
T0 3.4 -0.025 0.7 0.7 0 0.175 N V 21 N "U1"
T1 1 2.49936 1.00076 1.00076 0 0.20066 N I 21 N "10k"
DS 2.325 1.325 2.325 -1.275 0.15 21
DS -2.375 -1.275 -2.375 1.325 0.15 21
DS -2.375 1.325 2.325 1.325 0.15 21
DS 2.325 -1.275 -2.375 -1.275 0.15 21
$PAD
Sh "16" R 0.29972 0.65024 0 0 0
Dr 0 0 0
At SMD N 00888000
Ne 1 "GND"
Po -1.75 -0.575
$EndPAD
$PAD
Sh "15" R 0.29972 0.65024 0 0 0
Dr 0 0 0
At SMD N 00888000
Ne 1 "GND"
Po -1.25 -0.575
$EndPAD
$PAD
Sh "14" R 0.29972 0.65024 0 0 0
Dr 0 0 0
At SMD N 00888000
Ne 1 "GND"
Po -0.74854 -0.5715
$EndPAD
$PAD
Sh "13" R 0.29972 0.65024 0 0 0
Dr 0 0 0
At SMD N 00888000
Ne 1 "GND"
Po -0.25 -0.575
$EndPAD
$PAD
Sh "4" R 0.29972 0.65024 0 0 0
Dr 0 0 0
At SMD N 00888000
Ne 4 "N-0000052"
Po -0.25 0.57912
$EndPAD
$PAD
Sh "3" R 0.29972 0.65024 0 0 0
Dr 0 0 0
At SMD N 00888000
Ne 5 "N-0000053"
Po -0.75 0.57912
$EndPAD
$PAD
Sh "2" R 0.29972 0.65024 0 0 0
Dr 0 0 0
At SMD N 00888000
Ne 6 "N-0000054"
Po -1.25 0.57912
$EndPAD
$PAD
Sh "1" R 0.29972 0.65024 0 0 0
Dr 0 0 0
At SMD N 00888000
Ne 7 "N-0000058"
Po -1.75 0.57912
$EndPAD
$PAD
Sh "5" R 0.29972 0.65024 0 0 0
Dr 0 0 0
At SMD N 00888000
Ne 3 "N-0000051"
Po 0.25 0.57912
$EndPAD
$PAD
Sh "6" R 0.29972 0.65024 0 0 0
Dr 0 0 0
At SMD N 00888000
Ne 2 "N-0000050"
Po 0.75 0.57912
$EndPAD
$PAD
Sh "7" R 0.29972 0.65024 0 0 0
Dr 0 0 0
At SMD N 00888000
Ne 8 "N-0000067"
Po 1.25 0.57912
$EndPAD
$PAD
Sh "8" R 0.29972 0.65024 0 0 0
Dr 0 0 0
At SMD N 00888000
Ne 9 "N-0000068"
Po 1.75 0.57912
$EndPAD
$PAD
Sh "9" R 0.29972 0.65024 0 0 0
Dr 0 0 0
At SMD N 00888000
Ne 1 "GND"
Po 1.75184 -0.5715
$EndPAD
$PAD
Sh "10" R 0.29972 0.65024 0 0 0
Dr 0 0 0
At SMD N 00888000
Ne 1 "GND"
Po 1.25146 -0.5715
$EndPAD
$PAD
Sh "11" R 0.29972 0.65024 0 0 0
Dr 0 0 0
At SMD N 00888000
Ne 1 "GND"
Po 0.75108 -0.5715
$EndPAD
$PAD
Sh "12" R 0.29972 0.65024 0 0 0
Dr 0 0 0
At SMD N 00888000
Ne 1 "GND"
Po 0.2507 -0.5715
$EndPAD
$EndMODULE YC248
$EndLIBRARY
