PCBNEW-LibModule-V1  Tue 20 Aug 2013 09:39:02 BST
# encoding utf-8
Units mm
$INDEX
LED-1206
LED-1206-SJH
$EndINDEX
$MODULE LED-1206
Po 0 0 0 15 52110D36 00000000 ~~
Li LED-1206
Cd LED 1206 smd package
Kw LED1206 SMD
Sc 0
AR 
Op 0 0 0
At SMD
T0 0.254 -1.524 0.762 0.762 0 0.0889 N V 21 N "LED-1206"
T1 0 1.524 0.762 0.762 0 0.0889 N I 21 N "VAL**"
DS -0.125 -0.975 -0.125 -1.2 0.15 21
DS -0.375 -1.15 -0.125 -0.975 0.15 21
DS -0.15 -1.2 -0.375 -1.15 0.15 21
DS -0.4 -0.825 -0.15 -1.2 0.15 21
DS 0 -0.6 0.25 -0.975 0.15 21
DS 0.25 -0.975 0.025 -0.925 0.15 21
DS 0.025 -0.925 0.275 -0.75 0.15 21
DS 0.275 -0.75 0.275 -0.975 0.15 21
DS 0.45 -0.625 0.45 0.675 0.15 21
DS -0.4 -0.625 -0.4 0.625 0.15 21
DS -0.4 0.625 0.425 -0.025 0.15 21
DS 0.425 -0.025 -0.4 -0.625 0.15 21
DC 2.8 1.375 2.725 1.175 0.15 21
$PAD
Sh "1" R 1.59766 1.80086 0 0 0
Dr 0 0 0
At SMD N 00888000
Ne 0 ""
Po -1.41986 0
$EndPAD
$PAD
Sh "2" R 1.59766 1.80086 0 0 0
Dr 0 0 0
At SMD N 00888000
Ne 0 ""
Po 1.41986 0
$EndPAD
$EndMODULE LED-1206
$MODULE LED-1206-SJH
Po 0 0 0 15 52132B19 00000000 ~~
Li LED-1206-SJH
Cd LED 1206 smd package
Kw LED1206 SMD
Sc 0
AR /5210EDCB
Op 0 0 0
At SMD
T0 -3.15 -0.05 0.762 0.762 900 0.0889 N V 21 N "D4"
T1 0 1.524 0.762 0.762 0 0.0889 N I 21 N "LED"
DC 2.75 0 2.75 -0.05 0.15 21
DC 2.75 0 2.75 -0.1 0.15 21
DS -0.125 -0.975 -0.125 -1.2 0.15 21
DS -0.375 -1.15 -0.125 -0.975 0.15 21
DS -0.15 -1.2 -0.375 -1.15 0.15 21
DS -0.4 -0.825 -0.15 -1.2 0.15 21
DS 0 -0.6 0.25 -0.975 0.15 21
DS 0.25 -0.975 0.025 -0.925 0.15 21
DS 0.025 -0.925 0.275 -0.75 0.15 21
DS 0.275 -0.75 0.275 -0.975 0.15 21
DS 0.45 -0.625 0.45 0.675 0.15 21
DS -0.4 -0.625 -0.4 0.625 0.15 21
DS -0.4 0.625 0.425 -0.025 0.15 21
DS 0.425 -0.025 -0.4 -0.625 0.15 21
DC 2.75 0.025 2.675 -0.175 0.15 21
$PAD
Sh "1" R 1.59766 1.80086 0 0 0
Dr 0 0 0
At SMD N 00888000
Ne 1 "N-0000045"
Po -1.41986 0
$EndPAD
$PAD
Sh "2" R 1.59766 1.80086 0 0 0
Dr 0 0 0
At SMD N 00888000
Ne 2 "N-0000075"
Po 1.41986 0
$EndPAD
$EndMODULE LED-1206-SJH
$EndLIBRARY
