PCBNEW-LibModule-V1  Mon 02 Sep 2013 21:57:57 BST
# encoding utf-8
Units mm
$INDEX
MICRO_B_USB-Molex-47346
$EndINDEX
$MODULE MICRO_B_USB-Molex-47346
Po 0 0 0 15 5224FBB8 00000000 ~~
Li MICRO_B_USB-Molex-47346
Kw Micro B USB
Sc 0
AR /52110A14
Op 0 0 0
At SMD
T0 -5.875 0.025 0.8001 0.8001 0 0.200025 N V 21 N "P7"
T1 0 -4.30022 0.8001 0.8001 0 0.200025 N V 21 N "MICRO-B-USB"
T2 -14.4 2.175 1 1 0 0.15 N I 21 N "Connector Front Edge ->"
T2 10 1.55 1 1 0 0.15 N I 21 N "<- PCB Edge"
DS -4.2 -3.55 -4.2 -1.2 0.15 21
DS 4.175 -3.525 4.175 -1.25 0.15 21
DS 1.94898 -3.52474 4.15116 -3.52474 0.20066 21
DS -4.17616 -3.52474 -1.97398 -3.52474 0.20066 21
$PAD
Sh "" R 2.375 1.89992 0 0 0
Dr 0 0 0
At SMD N 00828000
Ne 0 ""
Po -2.925 0.1
$EndPAD
$PAD
Sh "" R 2.375 1.89992 0 0 0
Dr 0 0 0
At SMD N 00888000
Ne 0 ""
Po 2.925 0.1
$EndPAD
$PAD
Sh "" R 1.175 1.89992 0 0 0
Dr 0 0 0
At SMD N 00888000
Ne 0 ""
Po -0.825 0.1
$EndPAD
$PAD
Sh "" R 1.175 1.89992 0 0 0
Dr 0 0 0
At SMD N 00888000
Ne 0 ""
Po 0.825 0.1
$EndPAD
$PAD
Sh "3" R 0.45 1.38 0 0 0
Dr 0 0 0
At SMD N 00888000
Ne 2 "N-0000064"
Po 0 -2.55016
$EndPAD
$PAD
Sh "4" R 0.45 1.38 0 0 0
Dr 0 0 0
At SMD N 00888000
Ne 4 "N-0000066"
Po 0.65024 -2.55016
$EndPAD
$PAD
Sh "5" R 0.45 1.38 0 0 0
Dr 0 0 0
At SMD N 00888000
Ne 1 "GND"
Po 1.30048 -2.55016
$EndPAD
$PAD
Sh "2" R 0.45 1.38 0 0 0
Dr 0 0 0
At SMD N 00888000
Ne 3 "N-0000065"
Po -0.65024 -2.55016
$EndPAD
$PAD
Sh "1" R 0.45 1.38 0 0 0
Dr 0 0 0
At SMD N 00888000
Ne 5 "VCC"
Po -1.30048 -2.55016
$EndPAD
$PAD
Sh "" R 1.475 2.1 0 0 0
Dr 0 0 0
At SMD N 00888000
Ne 0 ""
Po -2.475 -2.2
$EndPAD
$PAD
Sh "" R 1.475 2.1 0 0 0
Dr 0 0 0
At SMD N 00888000
Ne 0 ""
Po 2.475 -2.2
$EndPAD
$SHAPE3D
Na "..\\kicad-libs\\3d-models\\we-micro-b-usb3.wrl"
Sc 0.395 0.395 0.395
Of 0 0 0.048
Ro 0 180 0
$EndSHAPE3D
$EndMODULE MICRO_B_USB-Molex-47346
$EndLIBRARY
