PCBNEW-LibModule-V1  Sun 18 Aug 2013 19:30:36 BST
# encoding utf-8
Units mm
$INDEX
SM_4-Way_2.54mm_Header
$EndINDEX
$MODULE SM_4-Way_2.54mm_Header
Po 0 0 0 15 521112BD 00000000 ~~
Li SM_4-Way_2.54mm_Header
Sc 0
AR 
Op 0 0 0
T0 0 -4.95 1 1 0 0.15 N V 21 N "SM_4-Way_2.54mm_Header"
T1 0.025 4.75 1 1 0 0.15 N V 21 N "VAL**"
DS -5.525 3.5 5.15 3.5 0.15 21
DS -5.525 -3.425 5.175 -3.425 0.15 21
DS -5.525 -3.425 -5.525 3.5 0.15 21
DS 5.175 -3.425 5 -3.425 0.15 21
DS 5.175 3.5 5.175 -3.425 0.15 21
$PAD
Sh "1" R 1.02 3.15 0 0 0
Dr 0 0 0
At SMD N 00888000
Ne 0 ""
Po 3.775 1.6
$EndPAD
$PAD
Sh "2" R 1.02 3.15 0 0 0
Dr 0 0 0
At SMD N 00888000
Ne 0 ""
Po 1.235 -1.54
$EndPAD
$PAD
Sh "3" R 1.02 3.15 0 0 0
Dr 0 0 0
At SMD N 00888000
Ne 0 ""
Po -1.305 1.6
$EndPAD
$PAD
Sh "4" R 1.02 3.15 0 0 0
Dr 0 0 0
At SMD N 00888000
Ne 0 ""
Po -3.845 -1.54
$EndPAD
$EndMODULE SM_4-Way_2.54mm_Header
$EndLIBRARY
