PCBNEW-LibModule-V1  Thu 22 Aug 2013 16:29:03 BST
# encoding utf-8
Units mm
$INDEX
SM_8-Way_2.54mm_Header
SM_8x2-Way_2.54mm_Header
$EndINDEX
$MODULE SM_8-Way_2.54mm_Header
Po 0 0 0 15 52111249 00000000 ~~
Li SM_8-Way_2.54mm_Header
Sc 0
AR 
Op 0 0 0
At SMD
T0 -0.025 -4.75 1 1 0 0.15 N V 21 N "SM_8-Way_2.54mm_Header"
T1 -0.025 5.05 1 1 0 0.15 N V 21 N "VAL**"
DS 10.25 -3.4 10.075 -3.4 0.15 21
DS 10.25 3.525 10.25 -3.4 0.15 21
DS 10.25 3.525 -10.25 3.5 0.15 21
DS -10.25 3.5 -10.25 -3.45 0.15 21
DS -10.15 -3.4 10.175 -3.4 0.15 21
$PAD
Sh "1" R 1.02 3.15 0 0 0
Dr 0 0 0
At SMD N 00888000
Ne 0 ""
Po 8.85 1.625
$EndPAD
$PAD
Sh "2" R 1.02 3.15 0 0 0
Dr 0 0 0
At SMD N 00888000
Ne 0 ""
Po 6.31 -1.515
$EndPAD
$PAD
Sh "3" R 1.02 3.15 0 0 0
Dr 0 0 0
At SMD N 00888000
Ne 0 ""
Po 3.77 1.625
$EndPAD
$PAD
Sh "4" R 1.02 3.15 0 0 0
Dr 0 0 0
At SMD N 00888000
Ne 0 ""
Po 1.23 -1.515
$EndPAD
$PAD
Sh "5" R 1.02 3.15 0 0 0
Dr 0 0 0
At SMD N 00888000
Ne 0 ""
Po -1.31 1.625
$EndPAD
$PAD
Sh "6" R 1.02 3.15 0 0 0
Dr 0 0 0
At SMD N 00888000
Ne 0 ""
Po -3.85 -1.515
$EndPAD
$PAD
Sh "7" R 1.02 3.15 0 0 0
Dr 0 0 0
At SMD N 00888000
Ne 0 ""
Po -6.39 1.625
$EndPAD
$PAD
Sh "8" R 1.02 3.15 0 0 0
Dr 0 0 0
At SMD N 00888000
Ne 0 ""
Po -9.028 -1.515
$EndPAD
$EndMODULE SM_8-Way_2.54mm_Header
$MODULE SM_8x2-Way_2.54mm_Header
Po 0 0 0 15 521286A3 00000000 ~~
Li SM_8x2-Way_2.54mm_Header
Sc 0
AR 
Op 0 0 0
At SMD
T0 2.525 -6.85 1 1 0 0.15 N V 21 N "SM_8x2-Way_2.54mm_Header"
T1 2.325 6.125 1 1 0 0.15 N I 21 N "VAL**"
DS 10.2 4.6 10.2 4.8 0.15 21
DS 10.2 4.8 -10.3 4.8 0.15 21
DS -10.3 4.8 -10.3 4.45 0.15 21
DS -10.275 -4.8 -10.1 -4.8 0.15 21
DS -10.3 4.6 -10.275 -4.8 0.15 21
DS 10.2 4.575 10.2 -4.825 0.15 21
DS 10.2 -4.825 -10.1 -4.8 0.15 21
$PAD
Sh "1" R 1.02 3.5 0 0 1800
Dr 0 0 0
At SMD N 00888000
Ne 0 ""
Po -8.9 2.7
$EndPAD
$PAD
Sh "4" R 1.02 3.5 0 0 1800
Dr 0 0 0
At SMD N 00888000
Ne 0 ""
Po -6.36 -2.7
$EndPAD
$PAD
Sh "5" R 1.02 3.5 0 0 1800
Dr 0 0 0
At SMD N 00888000
Ne 0 ""
Po -3.82 2.7
$EndPAD
$PAD
Sh "8" R 1.02 3.5 0 0 1800
Dr 0 0 0
At SMD N 00888000
Ne 0 ""
Po -1.28 -2.7
$EndPAD
$PAD
Sh "9" R 1.02 3.5 0 0 1800
Dr 0 0 0
At SMD N 00888000
Ne 0 ""
Po 1.26 2.7
$EndPAD
$PAD
Sh "12" R 1.02 3.5 0 0 1800
Dr 0 0 0
At SMD N 00888000
Ne 0 ""
Po 3.8 -2.7
$EndPAD
$PAD
Sh "13" R 1.02 3.5 0 0 1800
Dr 0 0 0
At SMD N 00888000
Ne 0 ""
Po 6.34 2.7
$EndPAD
$PAD
Sh "16" R 1.02 3.5 0 0 1800
Dr 0 0 0
At SMD N 00888000
Ne 0 ""
Po 8.978 -2.7
$EndPAD
$PAD
Sh "2" R 1.02 3.5 0 0 1800
Dr 0 0 0
At SMD N 00888000
Ne 0 ""
Po -8.9 -2.7
$EndPAD
$PAD
Sh "3" R 1.02 3.5 0 0 1800
Dr 0 0 0
At SMD N 00888000
Ne 0 ""
Po -6.36 2.7
$EndPAD
$PAD
Sh "6" R 1.02 3.5 0 0 1800
Dr 0 0 0
At SMD N 00888000
Ne 0 ""
Po -3.82 -2.7
$EndPAD
$PAD
Sh "7" R 1.02 3.5 0 0 1800
Dr 0 0 0
At SMD N 00888000
Ne 0 ""
Po -1.28 2.7
$EndPAD
$PAD
Sh "10" R 1.02 3.5 0 0 1800
Dr 0 0 0
At SMD N 00888000
Ne 0 ""
Po 1.26 -2.7
$EndPAD
$PAD
Sh "11" R 1.02 3.5 0 0 1800
Dr 0 0 0
At SMD N 00888000
Ne 0 ""
Po 3.8 2.7
$EndPAD
$PAD
Sh "14" R 1.02 3.5 0 0 1800
Dr 0 0 0
At SMD N 00888000
Ne 0 ""
Po 6.34 -2.7
$EndPAD
$PAD
Sh "15" R 1.02 3.5 0 0 1800
Dr 0 0 0
At SMD N 00888000
Ne 0 ""
Po 8.978 2.7
$EndPAD
$EndMODULE SM_8x2-Way_2.54mm_Header
$EndLIBRARY
