PCBNEW-LibModule-V1  Mon 02 Sep 2013 21:47:09 BST
# encoding utf-8
Units mm
$INDEX
TSM-1XX-X-SV
$EndINDEX
$MODULE TSM-1XX-X-SV
Po 0 0 0 15 5224F932 00000000 ~~
Li TSM-1XX-X-SV
Cd 2.54mm SMD 1row, 8 way - Samtec TSM-1XX-X-SV family
Sc 0
AR /52111FB7
Op 0 0 0
At SMD
T0 11.32 -0.05 1 1 1800 0.15 N V 21 N "P3"
T1 -12.18 0 1.5 1.5 900 0.25 N V 21 N "Logic 1"
DS -10.25 -3.675 -10.25 3.525 0.15 21
DS -10.275 -3.675 9.85 -3.675 0.15 21
DS 9.85 -3.675 9.85 3.575 0.15 21
DS 9.85 3.575 -10.225 3.55 0.15 21
$PAD
Sh "1" R 1.27 3.48 0 0 0
Dr 0 0 0
At SMD N 00888000
Ne 1 "VCC"
Po 8.85 1.35
$EndPAD
$PAD
Sh "2" R 1.27 3.48 0 0 0
Dr 0 0 0
At SMD N 00888000
Ne 1 "VCC"
Po 6.31 -1.515
$EndPAD
$PAD
Sh "3" R 1.27 3.48 0 0 0
Dr 0 0 0
At SMD N 00888000
Ne 1 "VCC"
Po 3.77 1.35
$EndPAD
$PAD
Sh "4" R 1.27 3.48 0 0 0
Dr 0 0 0
At SMD N 00888000
Ne 1 "VCC"
Po 1.23 -1.515
$EndPAD
$PAD
Sh "5" R 1.27 3.48 0 0 0
Dr 0 0 0
At SMD N 00888000
Ne 1 "VCC"
Po -1.31 1.35
$EndPAD
$PAD
Sh "6" R 1.27 3.48 0 0 0
Dr 0 0 0
At SMD N 00888000
Ne 1 "VCC"
Po -3.85 -1.515
$EndPAD
$PAD
Sh "7" R 1.27 3.48 0 0 0
Dr 0 0 0
At SMD N 00888000
Ne 1 "VCC"
Po -6.39 1.35
$EndPAD
$PAD
Sh "8" R 1.27 3.48 0 0 0
Dr 0 0 0
At SMD N 00888000
Ne 1 "VCC"
Po -8.92 -1.515
$EndPAD
$EndMODULE TSM-1XX-X-SV
$EndLIBRARY
