PCBNEW-LibModule-V1  Mon 02 Sep 2013 21:49:01 BST
# encoding utf-8
Units mm
$INDEX
TSM-1XX-X-DV
$EndINDEX
$MODULE TSM-1XX-X-DV
Po 0 0 0 15 5224F9B6 00000000 ~~
Li TSM-1XX-X-DV
Cd 2.54mm SMD Header - Samtec family TSM-1XX-X-DV
Sc 0
AR /5211097B
Op 0 0 0
At SMD
T0 -11.52 0.012 1 1 0 0.15 N V 21 N "P5"
T1 12.23 -1.988 1.5 1.5 900 0.25 N V 21 N "NAND Out A"
DS -10.025 -4.75 10.05 -4.75 0.15 21
DS 10.05 -4.75 10.05 4.8 0.15 21
DS 10.05 4.8 -10.05 4.8 0.15 21
DS -10.05 4.8 -10.05 -4.8 0.15 21
$PAD
Sh "1" R 1.27 3.68 0 0 1800
Dr 0 0 0
At SMD N 00888000
Ne 4 "N-0000073"
Po -8.9 2.475
$EndPAD
$PAD
Sh "4" R 1.27 3.68 0 0 1800
Dr 0 0 0
At SMD N 00888000
Ne 4 "N-0000073"
Po -6.36 -2.475
$EndPAD
$PAD
Sh "5" R 1.27 3.68 0 0 1800
Dr 0 0 0
At SMD N 00888000
Ne 1 "N-0000069"
Po -3.82 2.475
$EndPAD
$PAD
Sh "8" R 1.27 3.68 0 0 1800
Dr 0 0 0
At SMD N 00888000
Ne 1 "N-0000069"
Po -1.28 -2.475
$EndPAD
$PAD
Sh "9" R 1.27 3.68 0 0 1800
Dr 0 0 0
At SMD N 00888000
Ne 2 "N-0000070"
Po 1.26 2.475
$EndPAD
$PAD
Sh "12" R 1.27 3.68 0 0 1800
Dr 0 0 0
At SMD N 00888000
Ne 2 "N-0000070"
Po 3.8 -2.475
$EndPAD
$PAD
Sh "13" R 1.27 3.68 0 0 1800
Dr 0 0 0
At SMD N 00888000
Ne 3 "N-0000071"
Po 6.34 2.475
$EndPAD
$PAD
Sh "16" R 1.27 3.68 0 0 1800
Dr 0 0 0
At SMD N 00888000
Ne 3 "N-0000071"
Po 8.88 -2.475
$EndPAD
$PAD
Sh "2" R 1.27 3.68 0 0 1800
Dr 0 0 0
At SMD N 00888000
Ne 4 "N-0000073"
Po -8.9 -2.475
$EndPAD
$PAD
Sh "3" R 1.27 3.68 0 0 1800
Dr 0 0 0
At SMD N 00888000
Ne 4 "N-0000073"
Po -6.36 2.475
$EndPAD
$PAD
Sh "6" R 1.27 3.68 0 0 1800
Dr 0 0 0
At SMD N 00888000
Ne 1 "N-0000069"
Po -3.82 -2.475
$EndPAD
$PAD
Sh "7" R 1.27 3.68 0 0 1800
Dr 0 0 0
At SMD N 00888000
Ne 1 "N-0000069"
Po -1.28 2.475
$EndPAD
$PAD
Sh "10" R 1.27 3.68 0 0 1800
Dr 0 0 0
At SMD N 00888000
Ne 2 "N-0000070"
Po 1.26 -2.475
$EndPAD
$PAD
Sh "11" R 1.27 3.68 0 0 1800
Dr 0 0 0
At SMD N 00888000
Ne 2 "N-0000070"
Po 3.8 2.475
$EndPAD
$PAD
Sh "14" R 1.27 3.68 0 0 1800
Dr 0 0 0
At SMD N 00888000
Ne 3 "N-0000071"
Po 6.34 -2.475
$EndPAD
$PAD
Sh "15" R 1.27 3.68 0 0 1800
Dr 0 0 0
At SMD N 00888000
Ne 3 "N-0000071"
Po 8.88 2.475
$EndPAD
$EndMODULE TSM-1XX-X-DV
$EndLIBRARY
