PCBNEW-LibModule-V1  Sun 18 Aug 2013 20:41:24 BST
# encoding utf-8
Units mm
$INDEX
YC124-JR
$EndINDEX
$MODULE YC124-JR
Po 0 0 0 15 5211235D 00000000 ~~
Li YC124-JR
Cd YC124 4x0402 / 0804 Resistor array
Sc 0
AR 
Op 0 0 0
At SMD
T0 -0.0508 -2.94894 1.524 1.524 0 0.3048 N V 21 N "YC124-JR"
T1 0 2.49936 1.00076 1.00076 0 0.20066 N I 21 N "VAL**"
DS -1.3589 -1.28016 -1.3589 1.34874 0.24892 21
DS -1.3589 1.34874 1.3208 1.34874 0.24892 21
DS 1.3208 1.34874 1.3208 -1.25984 0.24892 21
DS 1.31064 -1.30048 -1.3589 -1.30048 0.24892 21
$PAD
Sh "1" R 0.29972 0.65024 0 0 0
Dr 0 0 0
At SMD N 00888000
Ne 0 ""
Po -0.7493 0.57912
$EndPAD
$PAD
Sh "2" R 0.29972 0.65024 0 0 0
Dr 0 0 0
At SMD N 00888000
Ne 0 ""
Po -0.24892 0.57912
$EndPAD
$PAD
Sh "3" R 0.29972 0.65024 0 0 0
Dr 0 0 0
At SMD N 00888000
Ne 0 ""
Po 0.25146 0.57912
$EndPAD
$PAD
Sh "4" R 0.29972 0.65024 0 0 0
Dr 0 0 0
At SMD N 00888000
Ne 0 ""
Po 0.75184 0.57912
$EndPAD
$PAD
Sh "5" R 0.29972 0.65024 0 0 0
Dr 0 0 0
At SMD N 00888000
Ne 0 ""
Po 0.75184 -0.5715
$EndPAD
$PAD
Sh "6" R 0.29972 0.65024 0 0 0
Dr 0 0 0
At SMD N 00888000
Ne 0 ""
Po 0.25146 -0.5715
$EndPAD
$PAD
Sh "7" R 0.29972 0.65024 0 0 0
Dr 0 0 0
At SMD N 00888000
Ne 0 ""
Po -0.24892 -0.5715
$EndPAD
$PAD
Sh "8" R 0.29972 0.65024 0 0 0
Dr 0 0 0
At SMD N 00888000
Ne 0 ""
Po -0.7493 -0.5715
$EndPAD
$EndMODULE YC124-JR
$EndLIBRARY
