PCBNEW-LibModule-V1  25/07/2014 14:19:58
# encoding utf-8
Units mm
$INDEX
YC248
$EndINDEX
$MODULE YC248
Po 0 0 0 15 53D2597C 00000000 ~~
Li YC248
Cd YC124 8x0402 / 0804 Resistor array
Sc 0
AR /521127EA
Op 0 0 0
At SMD
T0 3.05 0.625 0.7 0.7 900 0.175 N V 21 N "U1"
T1 1 2.49936 1.00076 1.00076 0 0.20066 N I 21 N "10k"
DS 2.325 1.325 2.325 -1.275 0.15 21
DS -2.375 -1.275 -2.375 1.325 0.15 21
DS -2.375 1.325 2.325 1.325 0.15 21
DS 2.325 -1.275 -2.375 -1.275 0.15 21
$PAD
Sh "16" R 0.29972 0.75 0 0 0
Dr 0 0 0
At SMD N 00888000
Ne 1 "GND"
Po -1.75 -0.575
$EndPAD
$PAD
Sh "15" R 0.29972 0.75 0 0 0
Dr 0 0 0
At SMD N 00888000
Ne 1 "GND"
Po -1.25 -0.575
$EndPAD
$PAD
Sh "14" R 0.29972 0.75 0 0 0
Dr 0 0 0
At SMD N 00888000
Ne 1 "GND"
Po -0.74854 -0.5715
$EndPAD
$PAD
Sh "13" R 0.29972 0.75 0 0 0
Dr 0 0 0
At SMD N 00888000
Ne 1 "GND"
Po -0.25 -0.575
$EndPAD
$PAD
Sh "4" R 0.29972 0.75 0 0 0
Dr 0 0 0
At SMD N 00888000
Ne 7 "N-0000061"
Po -0.25 0.57912
$EndPAD
$PAD
Sh "3" R 0.29972 0.75 0 0 0
Dr 0 0 0
At SMD N 00888000
Ne 8 "N-0000062"
Po -0.75 0.57912
$EndPAD
$PAD
Sh "2" R 0.29972 0.75 0 0 0
Dr 0 0 0
At SMD N 00888000
Ne 9 "N-0000063"
Po -1.25 0.57912
$EndPAD
$PAD
Sh "1" R 0.29972 0.75 0 0 0
Dr 0 0 0
At SMD N 00888000
Ne 2 "N-0000032"
Po -1.75 0.57912
$EndPAD
$PAD
Sh "5" R 0.29972 0.75 0 0 0
Dr 0 0 0
At SMD N 00888000
Ne 6 "N-0000060"
Po 0.25 0.57912
$EndPAD
$PAD
Sh "6" R 0.29972 0.75 0 0 0
Dr 0 0 0
At SMD N 00888000
Ne 5 "N-0000059"
Po 0.75 0.57912
$EndPAD
$PAD
Sh "7" R 0.29972 0.75 0 0 0
Dr 0 0 0
At SMD N 00888000
Ne 4 "N-0000058"
Po 1.25 0.57912
$EndPAD
$PAD
Sh "8" R 0.29972 0.75 0 0 0
Dr 0 0 0
At SMD N 00888000
Ne 3 "N-0000035"
Po 1.75 0.57912
$EndPAD
$PAD
Sh "9" R 0.29972 0.75 0 0 0
Dr 0 0 0
At SMD N 00888000
Ne 1 "GND"
Po 1.75184 -0.5715
$EndPAD
$PAD
Sh "10" R 0.29972 0.75 0 0 0
Dr 0 0 0
At SMD N 00888000
Ne 1 "GND"
Po 1.25146 -0.5715
$EndPAD
$PAD
Sh "11" R 0.29972 0.75 0 0 0
Dr 0 0 0
At SMD N 00888000
Ne 1 "GND"
Po 0.75108 -0.5715
$EndPAD
$PAD
Sh "12" R 0.29972 0.75 0 0 0
Dr 0 0 0
At SMD N 00888000
Ne 1 "GND"
Po 0.2507 -0.5715
$EndPAD
$EndMODULE YC248
$EndLIBRARY
